Division,WeightClassKg,Place,Name,Team,BodyweightKg,Best3SquatKg,Best3BenchKg,Best3DeadliftKg,TotalKg,Equipment,Event,Sex,BirthDate
Boys,55.79,1,Andre Rebolloso,Glen Rose,55.52,108.86,56.7,113.4,278.96,Single-ply,SBD,M,
Boys,59.87,1,Christian Guittierrez,Glen Rose,59.42,102.06,68.04,122.47,292.57,Single-ply,SBD,M,
Boys,67.13,1,Kameron Sinclair,White Settlement Brewer,62.14,183.7,104.33,188.24,476.27,Single-ply,SBD,M,
Boys,67.13,2,Braulio Silva,Glen Rose,66.9,145.15,79.38,172.37,396.89,Single-ply,SBD,M,
Boys,67.13,3,James Pompa,Glen Rose,66.86,127.01,79.38,142.88,349.27,Single-ply,SBD,M,
Boys,67.13,4,Jaylon Gibson,White Settlement Brewer,67.13,131.54,90.72,124.74,347,Single-ply,SBD,M,
Boys,67.13,5,Gage Edgar,Glen Rose,66.59,108.86,68.04,145.15,322.05,Single-ply,SBD,M,
Boys,67.13,6,Walker Andrews,Glen Rose,66.22,104.33,49.9,117.93,272.16,Single-ply,SBD,M,
Boys,74.84,1,Parker Stephenson,Glen Rose,73.16,163.29,102.06,172.37,437.72,Single-ply,SBD,M,
Boys,74.84,2,Triston Black,Glen Rose,74.75,188.24,95.25,142.88,426.38,Single-ply,SBD,M,
Boys,74.84,3,Tyrelle Davis,White Settlement Brewer,74.84,158.76,104.33,163.29,426.38,Single-ply,SBD,M,
Boys,74.84,4,Conner Homrighaus,Glen Rose,74.39,142.88,99.79,170.1,412.77,Single-ply,SBD,M,
Boys,74.84,5,Race Turner,Glen Rose,74.39,154.22,81.65,136.08,371.95,Single-ply,SBD,M,
Boys,74.84,6,Barron Barnes,Glen Rose,74.84,122.47,86.18,163.29,371.95,Single-ply,SBD,M,
Boys,74.84,7,Will Washington,White Settlement Brewer,74.84,131.54,83.91,149.69,365.14,Single-ply,SBD,M,
Boys,74.84,8,Jonathan Arnold,White Settlement Brewer,71.67,117.93,68.04,115.67,301.64,Single-ply,SBD,M,
Boys,82.1,1,Alec Boyle,White Settlement Brewer,79.83,204.12,156.49,195.04,555.65,Single-ply,SBD,M,
Boys,82.1,2,Montrail Cushionberry,White Settlement Brewer,79.83,210.92,142.88,158.76,512.56,Single-ply,SBD,M,
Boys,82.1,3,Ryder Cook,Glen Rose,81.65,185.97,102.06,185.97,474,Single-ply,SBD,M,
Boys,82.1,4,John Pompa,Glen Rose,82.01,158.76,104.33,176.9,439.98,Single-ply,SBD,M,
Boys,82.1,5,Mehki Elmore,White Settlement Brewer,78.02,154.22,88.45,170.1,412.77,Single-ply,SBD,M,
Boys,82.1,6,Christian de la Cruz,Glen Rose,78.47,154.22,90.72,167.83,412.77,Single-ply,SBD,M,
Boys,82.1,7,Russell Lem,Glen Rose,79.83,136.08,92.99,154.22,383.29,Single-ply,SBD,M,
Boys,89.81,1,Elizjah Richardson,White Settlement Brewer,89.81,154.22,124.74,192.78,471.74,Single-ply,SBD,M,
Boys,89.81,2,Cam Raymond,Glen Rose,88.45,188.24,97.52,174.63,460.4,Single-ply,SBD,M,
Boys,89.81,3,Jake Gilbreath,Glen Rose,89.18,172.37,90.72,170.1,433.18,Single-ply,SBD,M,
Boys,89.81,4,Jaqualyn Spriggs,White Settlement Brewer,88,145.15,90.72,151.95,387.82,Single-ply,SBD,M,
Boys,89.81,5,Ethan Treadaway,Glen Rose,84.73,149.69,70.31,145.15,365.14,Single-ply,SBD,M,
Boys,89.81,DQ,Courtney Pruitt,White Settlement Brewer,89.81,185.97,,170.1,,Single-ply,SBD,M,
Boys,99.79,1,Hunter Douglas,Glen Rose,95.25,195.04,115.67,172.37,483.08,Single-ply,SBD,M,
Boys,99.79,2,Colton Lane,Glen Rose,97.52,136.08,77.11,129.27,342.46,Single-ply,SBD,M,
Boys,99.79,DQ,Caleb Williams #9,White Settlement Brewer,99.34,174.63,113.4,,,Single-ply,SBD,M,
Boys,109.77,1,Errik Mills,White Settlement Brewer,107.05,192.78,136.08,210.92,539.77,Single-ply,SBD,M,
Boys,109.77,2,Robert Orr,White Settlement Brewer,104.78,210.92,115.67,183.7,510.29,Single-ply,SBD,M,
Boys,109.77,3,Harley Bowman,Glen Rose,105.87,185.97,117.93,163.29,467.2,Single-ply,SBD,M,
Boys,109.77,4,Angel Martinez #10,White Settlement Brewer,109.32,158.76,113.4,165.56,437.72,Single-ply,SBD,M,
Boys,124.74,1,Peyton Klein,Glen Rose,121.56,195.04,117.93,181.44,494.42,Single-ply,SBD,M,
Boys,124.74,2,Rj Weatherd,White Settlement Brewer,116.12,161.03,113.4,174.63,449.06,Single-ply,SBD,M,
Boys,124.74,3,Tyler Berry,Glen Rose,119.02,129.27,77.11,158.76,365.14,Single-ply,SBD,M,
Boys,124.74,DQ,Mike Esparza,Glen Rose,117.03,140.61,,167.83,,Single-ply,SBD,M,
Boys,139.71+,1,David Herrera #6,White Settlement Brewer,140.16,197.31,117.93,179.17,494.42,Single-ply,SBD,M,
