Division,WeightClassKg,Place,Name,Team,BodyweightKg,Best3SquatKg,Best3BenchKg,Best3DeadliftKg,TotalKg,Equipment,Event,Sex,BirthDate
Boys,59.87,1,Ashton Porter,Quinlan Boles,59.6,149.69,72.57,147.42,369.68,Single-ply,SBD,M,
Boys,59.87,2,Dominic Griffin,Quinlan Ford,58.06,124.74,70.31,138.35,333.39,Single-ply,SBD,M,
Boys,59.87,DQ,Payton Schroder,Caddo Mills,59.33,127.01,,,,Single-ply,SBD,M,
Boys,67.13,1,Leonel Padron,Quinlan Ford,65.32,204.12,83.91,183.7,471.74,Single-ply,SBD,M,
Boys,67.13,2,Jeromy Griffin,Quinlan Ford,66.13,183.7,99.79,172.37,455.86,Single-ply,SBD,M,
Boys,67.13,3,Juan Muñoz,Quinlan Ford,66.95,176.9,86.18,176.9,439.98,Single-ply,SBD,M,
Boys,67.13,4,Jake Mitchell,Caddo Mills,65.59,151.95,86.18,167.83,405.97,Single-ply,SBD,M,
Boys,67.13,5,Camden Smith,Caddo Mills,60.42,120.2,74.84,131.54,326.59,Single-ply,SBD,M,
Boys,74.84,1,Raymond Malphurs,Quinlan Boles,72.67,170.1,83.91,181.44,435.45,Single-ply,SBD,M,
Boys,74.84,2,Gage Bradley,Caddo Mills,68.95,174.63,74.84,165.56,415.04,Single-ply,SBD,M,
Boys,74.84,3,Hunter Carter,Caddo Mills,68.13,161.03,92.99,138.35,392.36,Single-ply,SBD,M,
Boys,74.84,4,Roger Maravilla,Caddo Mills,67.31,147.42,79.38,142.88,369.68,Single-ply,SBD,M,
Boys,74.84,5,Elian Carrillo,Quinlan Ford,72.76,138.35,70.31,129.27,337.93,Single-ply,SBD,M,
Boys,82.1,1,Angel Bernman,Quinlan Boles,81.1,147.42,72.57,129.27,349.27,Single-ply,SBD,M,
Boys,89.81,1,Jadonavan Williams,Quinlan Ford,84.91,249.48,154.22,215.46,619.15,Single-ply,SBD,M,
Boys,89.81,2,Johnny Owens,Quinlan Ford,86.45,183.7,102.06,183.7,469.47,Single-ply,SBD,M,
Boys,89.81,DQ,Brandon White #3,Quinlan Ford,85.64,129.27,74.84,,,Single-ply,SBD,M,
Boys,89.81,DQ,Hayden Reif,Caddo Mills,88.9,,,,,Single-ply,SBD,M,
Boys,99.79,1,Sean Newaik,Caddo Mills,95.8,226.8,142.88,226.8,596.47,Single-ply,SBD,M,
Boys,99.79,2,Adrian Alaniz,Quinlan Ford,99.25,238.14,145.15,206.38,589.67,Single-ply,SBD,M,
Boys,99.79,DQ,Corbin Fowler,Quinlan Ford,93.98,,,,,Single-ply,SBD,M,
Boys,109.77,1,Colt Cooper,Quinlan Ford,102.06,317.51,188.24,272.16,777.91,Single-ply,SBD,M,
Boys,109.77,2,Aydin Fox,Quinlan Boles,107.5,165.56,92.99,165.56,424.11,Single-ply,SBD,M,
Boys,109.77,3,Steven Duderman,Quinlan Ford,103.24,113.4,74.84,147.42,335.66,Single-ply,SBD,M,
Boys,124.74,1,Josh Hern,Quinlan Boles,122.92,165.56,97.52,172.37,435.45,Single-ply,SBD,M,
Boys,139.71,1,Adrian Resendiz,Caddo Mills,127.46,226.8,142.88,181.44,551.11,Single-ply,SBD,M,
Boys,139.71+,1,Richard Battson,Caddo Mills,143.7,254.01,127.01,204.12,585.13,Single-ply,SBD,M,
Boys,139.71+,2,Haylen Cave,Caddo Mills,154.13,142.88,88.45,156.49,387.82,Single-ply,SBD,M,
