Division,WeightClassKg,Place,Name,Team,BodyweightKg,Best3SquatKg,Best3BenchKg,Best3DeadliftKg,TotalKg,Equipment,Event,Sex
Girls,44.23,1,Gabby Ramirez,San Marcos,42.91,79.38,34.02,92.99,206.38,Single-ply,SBD,F
Girls,44.23,2,Marciana Ortiz,Del Valle,39.55,36.29,20.41,47.63,104.33,Single-ply,SBD,F
Girls,44.23,DQ,Raelee Reyes,San Marcos,44.18,,,,,Single-ply,SBD,F
Girls,47.85,1,Julissa Gonzalez,Kyle Lehman,45.27,88.45,45.36,92.99,226.8,Single-ply,SBD,F
Girls,47.85,2,Vivian Araiza,Seguin,44.36,56.7,27.22,79.38,163.29,Single-ply,SBD,F
Girls,47.85,3,Gabriella Nagueras,Universal City Randolph,45.99,56.7,24.95,56.7,138.35,Single-ply,SBD,F
Girls,47.85,DQ,Kelsey White,Georgetown East View,47.63,,,,,Single-ply,SBD,F
Girls,47.85,DQ,LeUyen Do,Georgetown East View,47.63,,,,,Single-ply,SBD,F
Girls,51.94,1,Alivia Fajardo,Kyle Lehman,50.98,88.45,45.36,99.79,233.6,Single-ply,SBD,F
Girls,51.94,2,Braeven Zepeda,Seguin,51.35,68.04,34.02,88.45,190.51,Single-ply,SBD,F
Girls,51.94,3,Uribe Nicole,Manor,50.62,61.23,31.75,83.91,176.9,Single-ply,SBD,F
Girls,51.94,4,Aubry Reyes,Geronimo Navarro,48.72,56.7,29.48,68.04,154.22,Single-ply,SBD,F
Girls,51.94,5,Perkina Porter,Del Valle,49.62,52.16,29.48,70.31,151.95,Single-ply,SBD,F
Girls,51.94,6,Regan Whitson,Georgetown East View,49.53,58.97,29.48,29.48,117.93,Single-ply,SBD,F
Girls,56.02,1,Memory Seale,Buda Hays,54.88,104.33,54.43,108.86,267.62,Single-ply,SBD,F
Girls,56.02,2,Cassie Hernandez,San Marcos,53.71,97.52,47.63,102.06,247.21,Single-ply,SBD,F
Girls,56.02,3,Isabel Rodriguez,San Marcos,55.88,92.99,45.36,102.06,240.4,Single-ply,SBD,F
Girls,56.02,4,Amber Saenz,Kyle Lehman,54.7,92.99,49.9,88.45,231.33,Single-ply,SBD,F
Girls,56.02,5,Carr Alexis,Manor,55.61,68.04,36.29,102.06,206.38,Single-ply,SBD,F
Girls,56.02,6,Katelyn Tidwell,Buda Hays,53.25,70.31,38.56,88.45,197.31,Single-ply,SBD,F
Girls,56.02,7,Cassandra McHaney,Geronimo Navarro,54.07,68.04,34.02,70.31,172.37,Single-ply,SBD,F
Girls,56.02,8,Madison Pron,Universal City Randolph,53.34,61.23,34.02,70.31,165.56,Single-ply,SBD,F
Girls,56.02,DQ,Jenna Gonzales,San Marcos,53.89,97.52,,,,Single-ply,SBD,F
Girls,60.1,1,Katie Smith #4,Georgetown East View,59.42,115.67,54.43,127.01,297.1,Single-ply,SBD,F
Girls,60.1,2,Shaanti Rivas,San Marcos,56.52,113.4,47.63,115.67,276.69,Single-ply,SBD,F
Girls,60.1,3,Monique Avalos,Geronimo Navarro,58.97,90.72,52.16,102.06,244.94,Single-ply,SBD,F
Girls,60.1,4,Amiya Schmitt,Austin Lake Travis,59.87,86.18,54.43,102.06,242.67,Single-ply,SBD,F
Girls,60.1,5,Amia Skeet-King,Universal City Randolph,59.51,90.72,40.82,102.06,233.6,Single-ply,SBD,F
Girls,60.1,6,Maya Williams,Universal City Randolph,57.42,90.72,40.82,97.52,229.06,Single-ply,SBD,F
Girls,60.1,7,Makayla Webber,Del Valle,59.42,61.23,31.75,104.33,197.31,Single-ply,SBD,F
Girls,60.1,8,Brianna Patterson,Manor,59.6,65.77,38.56,86.18,190.51,Single-ply,SBD,F
Girls,60.1,9,Maria Navarette,Kyle Lehman,58.15,61.23,45.36,72.57,179.17,Single-ply,SBD,F
Girls,60.1,10,Alicia Rios,Buda Hays,58.88,61.23,31.75,81.65,174.63,Single-ply,SBD,F
Girls,67.36,1,Rubylee Perez,Kyle Lehman,60.42,140.61,63.5,131.54,335.66,Single-ply,SBD,F
Girls,67.36,2,Kiele Miller,Dripping Springs,67.13,102.06,54.43,124.74,281.23,Single-ply,SBD,F
Girls,67.36,3,Morgan Fitzgerald #1,Buda Hays,64.95,108.86,45.36,120.2,274.42,Single-ply,SBD,F
Girls,67.36,4,Jamie Shaw,Austin Lake Travis,62.87,102.06,61.23,102.06,265.35,Single-ply,SBD,F
Girls,67.36,5,Savannah McDougal,Kyle Lehman,63.96,108.86,45.36,108.86,263.08,Single-ply,SBD,F
Girls,67.36,6,Laura Juarez,San Marcos,67.13,90.72,43.09,108.86,242.67,Single-ply,SBD,F
Girls,67.36,7,Brenah Reed,Buda Hays,61.69,86.18,47.63,102.06,235.87,Single-ply,SBD,F
Girls,67.36,8,Estefanie Hernandez,Buda Hays,60.15,79.38,47.63,97.52,224.53,Single-ply,SBD,F
Girls,67.36,9,Margaret Seebeck,Universal City Randolph,62.69,61.23,31.75,81.65,174.63,Single-ply,SBD,F
Girls,67.36,10,Emma Kenny,Universal City Randolph,62.78,54.43,34.02,74.84,163.29,Single-ply,SBD,F
Girls,67.36,DQ,Julia Arroyo,Universal City Randolph,67.04,90.72,38.56,,,Single-ply,SBD,F
Girls,67.36,DQ,Brittany Scott,Buda Hays,67.13,,,,,Single-ply,SBD,F
Girls,67.36,DQ,Jillyanna Avalos,Geronimo Navarro,60.87,99.79,43.09,,,Single-ply,SBD,F
Girls,75.07,1,Audrey Gonzales,Geronimo Navarro,72.85,136.08,61.23,151.95,349.27,Single-ply,SBD,F
Girls,75.07,2,Alexis Ysla,Kyle Lehman,68.31,131.54,61.23,151.95,344.73,Single-ply,SBD,F
Girls,75.07,3,Maegen Delgado,San Marcos,70.85,133.81,61.23,147.42,342.46,Single-ply,SBD,F
Girls,75.07,4,Mia Palomarez,Kyle Lehman,70.13,117.93,54.43,124.74,297.1,Single-ply,SBD,F
Girls,75.07,5,Amber Garcia,Georgetown East View,73.21,120.2,49.9,127.01,297.1,Single-ply,SBD,F
Girls,75.07,6,Megan Wilke,Seguin,71.49,102.06,47.63,120.2,269.89,Single-ply,SBD,F
Girls,75.07,7,Caitlin Innes,Geronimo Navarro,72.57,92.99,47.63,111.13,251.74,Single-ply,SBD,F
Girls,75.07,8,Chloe Rincon,Seguin,69.13,83.91,52.16,102.06,238.14,Single-ply,SBD,F
Girls,75.07,9,Tierra Green,Seguin,69.58,88.45,38.56,104.33,231.33,Single-ply,SBD,F
Girls,75.07,10,Cassidy Arriaga,Seguin,72.03,77.11,40.82,90.72,208.65,Single-ply,SBD,F
Girls,75.07,DQ,Kendall Chambers,Geronimo Navarro,73.12,81.65,,,,Single-ply,SBD,F
Girls,75.07,DQ,Celia Sanchez,Del Valle,70.58,,,,,Single-ply,SBD,F
Girls,75.07,DQ,Haley Councel,Austin Lake Travis,70.03,83.91,,,,Single-ply,SBD,F
Girls,82.33,1,Quichocho Jayla,Manor,79.83,111.13,52.16,136.08,299.37,Single-ply,SBD,F
Girls,82.33,2,Delanie Jackson,Buda Hays,79.29,124.74,58.97,113.4,297.1,Single-ply,SBD,F
Girls,82.33,3,Alyssa Blanks,Buda Hays,80.2,99.79,54.43,124.74,278.96,Single-ply,SBD,F
Girls,82.33,4,Cassidy McMahon,Buda Hays,80.74,97.52,58.97,106.59,263.08,Single-ply,SBD,F
Girls,82.33,5,Regan Person,Geronimo Navarro,78.93,95.25,43.09,111.13,249.48,Single-ply,SBD,F
Girls,82.33,6,Amanda Hay,Dripping Springs,79.29,77.11,43.09,102.06,222.26,Single-ply,SBD,F
Girls,82.33,7,Lauryn Robledo,Geronimo Navarro,81.83,65.77,40.82,92.99,199.58,Single-ply,SBD,F
Girls,82.33,8,Naya Acosta,Del Valle,79.38,74.84,38.56,83.91,197.31,Single-ply,SBD,F
Girls,82.33,9,E'Zarria Franklin,Del Valle,79.56,74.84,36.29,86.18,197.31,Single-ply,SBD,F
Girls,82.33,10,Hannah Whiting,Georgetown East View,80.47,65.77,38.56,90.72,195.04,Single-ply,SBD,F
Girls,82.33,11,Alana Nolte,Geronimo Navarro,75.93,79.38,34.02,79.38,192.78,Single-ply,SBD,F
Girls,82.33,DQ,Megan Salmon,Georgetown East View,81.47,113.4,63.5,,,Single-ply,SBD,F
Girls,90.04,1,Kyana Gayden,Universal City Randolph,86.82,154.22,63.5,142.88,360.61,Single-ply,SBD,F
Girls,90.04,2,Maddy Cruz,Kyle Lehman,83.73,115.67,63.5,104.33,283.5,Single-ply,SBD,F
Girls,90.04,3,Leslie Ceja,Seguin,83.91,95.25,49.9,115.67,260.82,Single-ply,SBD,F
Girls,90.04,4,Kelsay Underwood,Seguin,84.91,86.18,47.63,108.86,242.67,Single-ply,SBD,F
Girls,90.04,5,Jaida White,Universal City Randolph,84.1,90.72,45.36,104.33,240.4,Single-ply,SBD,F
Girls,90.04,6,Vivan Covarrubias,Kyle Lehman,85.91,74.84,45.36,99.79,219.99,Single-ply,SBD,F
Girls,90.04,7,Hannah Wilson,Buda Hays,85.37,52.16,43.09,74.84,170.1,Single-ply,SBD,F
Girls,90.04,DQ,Emma Anstee,Georgetown East View,85.37,,,,,Single-ply,SBD,F
Girls,100.02,1,Evelyn Ramirez,Kyle Lehman,96.34,151.95,72.57,142.88,367.41,Single-ply,SBD,F
Girls,100.02,2,Kessiah Woodland,Georgetown East View,92.62,136.08,79.38,124.74,340.19,Single-ply,SBD,F
Girls,100.02,3,Kaitlyn Sampson,Del Valle,99.52,86.18,47.63,120.2,254.01,Single-ply,SBD,F
Girls,100.02,4,Vania Neri,Del Valle,91.81,36.29,22.68,70.31,129.27,Single-ply,SBD,F
Girls,100.02,DQ,Nahailey Santana,Georgetown East View,99.79,,,,,Single-ply,SBD,F
Girls,117.71,1,Tyra Brown,San Marcos,100.88,56.7,36.29,83.91,176.9,Single-ply,SBD,F
Girls,117.71+,1,Mia Dolin,Kyle Lehman,120.29,145.15,65.77,142.88,353.8,Single-ply,SBD,F
Girls,117.71+,2,Rozalynn Sheppard,Dripping Springs,127.19,129.27,63.5,117.93,310.71,Single-ply,SBD,F
Girls,117.71+,3,Lanette Demps,Del Valle,123.47,63.5,45.36,90.72,199.58,Single-ply,SBD,F
