Division,WeightClassKg,Place,Name,Team,BodyweightKg,Best3SquatKg,Best3BenchKg,Best3DeadliftKg,TotalKg,Equipment,Event,Sex,BirthDate
Girls,44.23,1,Grace Smith,Crane,43.32,117.93,58.97,124.74,301.64,Single-ply,SBD,F,
Girls,44.23,2,Faith Quiroz,Ozona,42.18,97.52,45.36,111.13,254.01,Single-ply,SBD,F,
Girls,44.23,3,Christian Everett,Coahoma,42.91,88.45,52.16,108.86,249.48,Single-ply,SBD,F,
Girls,44.23,4,Angelica Aranda,Eldorado,43.68,83.91,45.36,102.06,231.33,Single-ply,SBD,F,
Girls,44.23,5,Aubrey Jaramillo,Clarendon,39.78,88.45,43.09,97.52,229.06,Single-ply,SBD,F,
Girls,44.23,6,Zenia Florez,Kermit,43.77,99.79,54.43,74.84,229.06,Single-ply,SBD,F,
Girls,44.23,7,Jaelin Wylie,Sundown,42.27,86.18,38.56,99.79,224.53,Single-ply,SBD,F,
Girls,44.23,8,Cerius Gomez,McCamey,42.64,81.65,45.36,90.72,217.72,Single-ply,SBD,F,
Girls,44.23,9,Trinity Ramos,Friona,42.37,81.65,43.09,86.18,210.92,Single-ply,SBD,F,
Girls,44.23,10,Cassidy Reyes,Bovina,44.18,77.11,31.75,95.25,204.12,Single-ply,SBD,F,
Girls,44.23,11,Evelyn Salvador,Dimmitt,43.73,70.31,34.02,74.84,179.17,Single-ply,SBD,F,
Girls,44.23,12,Esly Trinidad,Iraan,42.18,61.23,29.48,86.18,176.9,Single-ply,SBD,F,
Girls,44.23,13,Kateri Masters,Mertzon Irion County,43.27,63.5,38.56,72.57,174.63,Single-ply,SBD,F,
Girls,44.23,DQ,Jasmine Rodriguez,Dimmitt,43.18,,,,,Single-ply,SBD,F,
Girls,47.85,1,Andrea Cervantes,Big Lake Reagan County,47.45,131.54,54.43,120.2,306.17,Single-ply,SBD,F,
Girls,47.85,2,Emma Rangel,Sunray,47.04,122.47,43.09,117.93,283.5,Single-ply,SBD,F,
Girls,47.85,3,Annabel Rosas,Seagraves,46.9,108.86,47.63,117.93,274.42,Single-ply,SBD,F,
Girls,47.85,4,Serena Dobbs,Coahoma,46.81,108.86,54.43,108.86,272.16,Single-ply,SBD,F,
Girls,47.85,5,Camryn Kelso,Vega,47.45,95.25,49.9,102.06,247.21,Single-ply,SBD,F,
Girls,47.85,6,Kendi Ashcraft,Quanah,47.22,92.99,54.43,97.52,244.94,Single-ply,SBD,F,
Girls,47.85,7,Lyndsi Espinoza,Tulia,44.45,99.79,40.82,99.79,240.4,Single-ply,SBD,F,
Girls,47.85,8,Jayleigh Ditto,Wink,47.85,86.18,47.63,86.18,219.99,Single-ply,SBD,F,
Girls,47.85,9,Briley Banks,San Angelo Grape Creek,46.81,83.91,40.82,88.45,213.19,Single-ply,SBD,F,
Girls,47.85,10,Marissa Martinez,Lamesa,46.77,86.18,40.82,83.91,210.92,Single-ply,SBD,F,
Girls,47.85,11,Alondra Tarango,Bovina,45.18,79.38,36.29,92.99,208.65,Single-ply,SBD,F,
Girls,47.85,12,Zoie Joslin,Coahoma,44.36,79.38,36.29,86.18,201.85,Single-ply,SBD,F,
Girls,47.85,13,Elora Thorn,Sudan,44.41,70.31,38.56,92.99,201.85,Single-ply,SBD,F,
Girls,47.85,14,Kaycee Valenzuela,Denver City,47.17,70.31,34.02,90.72,195.04,Single-ply,SBD,F,
Girls,51.94,1,Evelyn Burton,Hawley,51.89,149.69,79.38,124.74,353.8,Single-ply,SBD,F,
Girls,51.94,2,Kalissa Branch,Seagraves,51.71,142.88,47.63,145.15,335.66,Single-ply,SBD,F,
Girls,51.94,3,Myranda Guerrero,Eldorado,51.94,140.61,61.23,124.74,326.59,Single-ply,SBD,F,
Girls,51.94,4,Genesis Martinez,McCamey,50.62,131.54,68.04,115.67,315.25,Single-ply,SBD,F,
Girls,51.94,5,Mia Lozano,Christoval,49.8,127.01,61.23,120.2,308.44,Single-ply,SBD,F,
Girls,51.94,6,Bethany Todd,Crane,50.98,122.47,58.97,120.2,301.64,Single-ply,SBD,F,
Girls,51.94,7,Jocelyn Marroquin,Lamesa,51.03,120.2,61.23,120.2,301.64,Single-ply,SBD,F,
Girls,51.94,8,Leslie Regalado,Muleshoe,50.48,117.93,52.16,127.01,297.1,Single-ply,SBD,F,
Girls,51.94,9,Evyn Winborne,Panhandle,51.44,122.47,52.16,120.2,294.84,Single-ply,SBD,F,
Girls,51.94,10,Anahi Narvaez,Big Lake Reagan County,51.89,111.13,54.43,120.2,285.76,Single-ply,SBD,F,
Girls,51.94,11,Jaelynne Reynolds,Sundown,50.53,113.4,52.16,104.33,269.89,Single-ply,SBD,F,
Girls,51.94,12,Sissy Coronado,Eldorado,51.17,102.06,58.97,106.59,267.62,Single-ply,SBD,F,
Girls,51.94,13,Jennifer Acosta,Brownfield,50.89,104.33,40.82,115.67,260.82,Single-ply,SBD,F,
Girls,51.94,14,Mady Shield,Colorado City Colorado,51.8,92.99,47.63,108.86,249.48,Single-ply,SBD,F,
Girls,56.02,1,Mikah Grisham,Hawley,55.61,147.42,92.99,124.74,365.14,Single-ply,SBD,F,
Girls,56.02,2,Marisol Morales,Brownfield,53.16,145.15,72.57,127.01,344.73,Single-ply,SBD,F,
Girls,56.02,3,Izzy Durbin,Hawley,55.84,129.27,77.11,127.01,333.39,Single-ply,SBD,F,
Girls,56.02,4,Mariana Rosales,Tulia,53.16,151.95,52.16,127.01,331.12,Single-ply,SBD,F,
Girls,56.02,5,Avery Chacon,Merkel,54.7,127.01,65.77,136.08,328.85,Single-ply,SBD,F,
Girls,56.02,6,Natali Garza,Crane,54.84,113.4,65.77,149.69,328.85,Single-ply,SBD,F,
Girls,56.02,7,Yudith Aranda,Seagraves,55.25,120.2,79.38,117.93,317.51,Single-ply,SBD,F,
Girls,56.02,8,Alejandra Alegria,Eldorado,54.88,131.54,61.23,120.2,312.98,Single-ply,SBD,F,
Girls,56.02,9,Whitney Halfmann,Miles,53.71,106.59,68.04,136.08,310.71,Single-ply,SBD,F,
Girls,56.02,10,McKenna Lentz,Colorado City Colorado,54.34,120.2,65.77,120.2,306.17,Single-ply,SBD,F,
Girls,56.02,11,Savannah Rubio,Slaton,53.61,113.4,63.5,120.2,297.1,Single-ply,SBD,F,
Girls,56.02,12,Kandise Minjarez,Seagraves,55.34,117.93,61.23,111.13,290.3,Single-ply,SBD,F,
Girls,56.02,13,Camila Solis,Brownfield,54.11,117.93,56.7,104.33,278.96,Single-ply,SBD,F,
Girls,56.02,14,Sophie Doolittle,Ralls,54.61,115.67,52.16,104.33,272.16,Single-ply,SBD,F,
Girls,60.1,1,Micaela Hernandez,Sundown,60.06,151.95,74.84,167.83,394.63,Single-ply,SBD,F,
Girls,60.1,2,Kylee Carey,Hawley,59.15,163.29,86.18,124.74,374.21,Single-ply,SBD,F,
Girls,60.1,3,Kadence Esparza,Seagraves,59.96,138.35,86.18,129.27,353.8,Single-ply,SBD,F,
Girls,60.1,4,Logan Prater,Eldorado,59.47,140.61,58.97,142.88,342.46,Single-ply,SBD,F,
Girls,60.1,5,Dasani Rios,Eldorado,58.38,120.2,68.04,124.74,312.98,Single-ply,SBD,F,
Girls,60.1,6,Daniela Bustillos,Sunray,59.42,127.01,56.7,127.01,310.71,Single-ply,SBD,F,
Girls,60.1,7,Baylee Plumley,Junction,60.06,117.93,70.31,120.2,308.44,Single-ply,SBD,F,
Girls,60.1,8,Esperanza Castillo,Ozona,58.42,113.4,61.23,117.93,292.57,Single-ply,SBD,F,
Girls,60.1,9,Victoria Cerna,Ozona,56.7,117.93,54.43,117.93,290.3,Single-ply,SBD,F,
Girls,60.1,10,Areli Mercado,Tulia,59.24,120.2,49.9,113.4,283.5,Single-ply,SBD,F,
Girls,60.1,11,Magdalena Licerio,Friona,58.69,90.72,63.5,115.67,269.89,Single-ply,SBD,F,
Girls,60.1,DQ,Mercedes Davis,Mertzon Irion County,58.97,,,,,Single-ply,SBD,F,
Girls,60.1,DQ,Anabel Villarruel,Miles,59.33,,,,,Single-ply,SBD,F,
Girls,60.1,DQ,Minnel Leal,Dimmitt,59.15,122.47,,,,Single-ply,SBD,F,
Girls,67.36,1,Alexis Phillips,Mertzon Irion County,67.04,172.37,92.99,158.76,424.11,Single-ply,SBD,F,
Girls,67.36,2,Carina Sianez,Muleshoe,66.77,154.22,77.11,154.22,385.55,Single-ply,SBD,F,
Girls,67.36,3,Karissa Bueno,Seagraves,66.5,147.42,77.11,151.95,376.48,Single-ply,SBD,F,
Girls,67.36,4,Caryce Guerrero,Dalhart,65.77,147.42,79.38,147.42,374.21,Single-ply,SBD,F,
Girls,67.36,5,Bre Leathers,Hawley,65.68,142.88,102.06,124.74,369.68,Single-ply,SBD,F,
Girls,67.36,6,Maci Garrett,Wink,64.41,127.01,77.11,158.76,362.87,Single-ply,SBD,F,
Girls,67.36,7,Cailey Glover,Coahoma,65.68,147.42,79.38,129.27,356.07,Single-ply,SBD,F,
Girls,67.36,8,Vallie Sughrue,Mertzon Irion County,67.13,149.69,79.38,117.93,347,Single-ply,SBD,F,
Girls,67.36,9,Perla Contreras,Eldorado,67.36,136.08,74.84,136.08,347,Single-ply,SBD,F,
Girls,67.36,10,Marti Ramirez,Tulia,64.14,122.47,63.5,127.01,312.98,Single-ply,SBD,F,
Girls,67.36,11,Mercades Maldonado,Lamesa,66.22,113.4,70.31,124.74,308.44,Single-ply,SBD,F,
Girls,67.36,12,Monika Leyva,Kermit,64.64,122.47,56.7,124.74,303.91,Single-ply,SBD,F,
Girls,67.36,13,Kalyn Warren,Wink,65.05,124.74,52.16,113.4,290.3,Single-ply,SBD,F,
Girls,67.36,NS,Abigail Fuentes,Sonora,,,,,,Single-ply,SBD,F,
Girls,75.07,1,Yatzari Narvaez,Eldorado,71.85,190.51,115.67,172.37,478.54,Single-ply,SBD,F,
Girls,75.07,2,Sophia Mendez,Whiteface,74.21,133.81,95.25,147.42,376.48,Single-ply,SBD,F,
Girls,75.07,3,Madison White,Wellman-Union,72.21,145.15,68.04,154.22,367.41,Single-ply,SBD,F,
Girls,75.07,4,Ysabella Flores,Ozona,69.94,154.22,70.31,140.61,365.14,Single-ply,SBD,F,
Girls,75.07,5,Kiarra Telles,Junction,69.58,129.27,90.72,142.88,362.87,Single-ply,SBD,F,
Girls,75.07,6,Bryshna Solis,Crane,73.12,142.88,74.84,133.81,351.53,Single-ply,SBD,F,
Girls,75.07,7,Ashleigh Broom,Dimmitt,70.31,138.35,72.57,131.54,342.46,Single-ply,SBD,F,
Girls,75.07,8,Aubree Valenzuela,Brownfield,70.58,145.15,74.84,120.2,340.19,Single-ply,SBD,F,
Girls,75.07,9,Alejandra Villanueva,Junction,73.39,129.27,74.84,131.54,335.66,Single-ply,SBD,F,
Girls,75.07,10,Destiny Read,Colorado City Colorado,67.4,136.08,56.7,136.08,328.85,Single-ply,SBD,F,
Girls,75.07,11,Ivey Rodriguez,Ozona,68.58,136.08,70.31,120.2,326.59,Single-ply,SBD,F,
Girls,75.07,12,Savannah Cantu,Tulia,72.39,122.47,68.04,133.81,324.32,Single-ply,SBD,F,
Girls,75.07,13,Jenny Vaquera,Lockney,70.13,122.47,74.84,124.74,322.05,Single-ply,SBD,F,
Girls,75.07,DQ,Jaclyn Rollins,Hawley,72.67,,,,,Single-ply,SBD,F,
Girls,82.33,1,Kaidie Hackler,Childress,80.65,142.88,92.99,145.15,381.02,Single-ply,SBD,F,
Girls,82.33,2,Amaya Ramos,Slaton,76.52,151.95,88.45,133.81,374.21,Single-ply,SBD,F,
Girls,82.33,3,Zimrie Goen,Seagraves,81.1,138.35,81.65,149.69,369.68,Single-ply,SBD,F,
Girls,82.33,4,Zowie Watt,Vega,76.34,145.15,77.11,145.15,367.41,Single-ply,SBD,F,
Girls,82.33,5,Italia Anaya,Alpine,80.29,151.95,65.77,142.88,360.61,Single-ply,SBD,F,
Girls,82.33,6,Alexis Renteria,McCamey,78.97,147.42,79.38,122.47,349.27,Single-ply,SBD,F,
Girls,82.33,7,Nyomi Aranda,Eldorado,75.7,142.88,72.57,124.74,340.19,Single-ply,SBD,F,
Girls,82.33,8,Makenzie Swift,Ropesville Ropes,80.69,140.61,72.57,124.74,337.93,Single-ply,SBD,F,
Girls,82.33,9,Sahaira Reyes,Sundown,81.56,140.61,77.11,117.93,335.66,Single-ply,SBD,F,
Girls,82.33,10,Mya Romero,Brownfield,77.84,131.54,90.72,108.86,331.12,Single-ply,SBD,F,
Girls,82.33,11,Emily Sklenarik,Miles,78.83,127.01,65.77,136.08,328.85,Single-ply,SBD,F,
Girls,82.33,12,Analiza Rayos,Kermit,75.39,129.27,68.04,129.27,326.59,Single-ply,SBD,F,
Girls,82.33,13,Bergundi Hoover,Sundown,75.39,129.27,72.57,106.59,308.44,Single-ply,SBD,F,
Girls,82.33,14,Valeria Rico,Big Lake Reagan County,82.33,124.74,58.97,106.59,290.3,Single-ply,SBD,F,
Girls,82.33,DQ,Jaclyn Loera,Slaton,78.02,131.54,,,,Single-ply,SBD,F,
Girls,90.04,1,Jacquelyn Olivas,Vega,84.05,176.9,111.13,147.42,435.45,Single-ply,SBD,F,
Girls,90.04,2,Tatum Bermea,Lamesa,87.72,174.63,86.18,140.61,401.43,Single-ply,SBD,F,
Girls,90.04,3,Yazmin Barron,Dimmitt,88.36,156.49,81.65,147.42,385.55,Single-ply,SBD,F,
Girls,90.04,4,Jazzy Martinez,Crane,84.23,145.15,68.04,124.74,337.93,Single-ply,SBD,F,
Girls,90.04,5,Veronica Salinas,Tulia,84.91,149.69,56.7,131.54,337.93,Single-ply,SBD,F,
Girls,90.04,6,Maci Valadez,San Angelo Grape Creek,89.09,142.88,61.23,113.4,317.51,Single-ply,SBD,F,
Girls,90.04,7,Jadyn Martinez,Eldorado,83.64,124.74,54.43,136.08,315.25,Single-ply,SBD,F,
Girls,90.04,8,Kimberly Solis,Dimmitt,87.27,122.47,68.04,120.2,310.71,Single-ply,SBD,F,
Girls,90.04,9,Maria Urias,McCamey,83.51,120.2,56.7,127.01,303.91,Single-ply,SBD,F,
Girls,90.04,10,Ahtziri Soltero,Friona,88.36,142.88,40.82,120.2,303.91,Single-ply,SBD,F,
Girls,90.04,11,Ashley Hernandez,San Angelo Grape Creek,89.27,122.47,54.43,117.93,294.84,Single-ply,SBD,F,
Girls,90.04,12,Jade Pitcher,Clyde,86.91,99.79,61.23,122.47,283.5,Single-ply,SBD,F,
Girls,90.04,DQ,Sarah Elder,Hawley,86.64,151.95,86.18,,,Single-ply,SBD,F,
Girls,90.04,DQ,Kayla Carroll,New Home,84.05,,,,,Single-ply,SBD,F,
Girls,100.02,1,Angelica Hernandez,Hawley,95.25,165.56,102.06,145.15,412.77,Single-ply,SBD,F,
Girls,100.02,2,Marilyn Martinez,Dimmitt,98.97,167.83,72.57,140.61,381.02,Single-ply,SBD,F,
Girls,100.02,3,Kayleigh Hernandez,Ozona,90.17,136.08,79.38,154.22,369.68,Single-ply,SBD,F,
Girls,100.02,4,Mia Gray,Sunray,94.53,145.15,74.84,149.69,369.68,Single-ply,SBD,F,
Girls,100.02,5,Karen Rangel,Kermit,96.84,154.22,70.31,133.81,358.34,Single-ply,SBD,F,
Girls,100.02,6,Maraya Corrales,Dimmitt,93.35,149.69,68.04,136.08,353.8,Single-ply,SBD,F,
Girls,100.02,7,Savannah Castillo,Lubbock Roosevelt,90.72,145.15,70.31,115.67,331.12,Single-ply,SBD,F,
Girls,100.02,8,Gabriela Morgan,Clyde,98.16,131.54,58.97,140.61,331.12,Single-ply,SBD,F,
Girls,100.02,9,Maribel Garcia,Tahoka,90.49,140.61,54.43,120.2,315.25,Single-ply,SBD,F,
Girls,100.02,10,Allison Belew,Sundown,98.79,113.4,72.57,122.47,308.44,Single-ply,SBD,F,
Girls,100.02,11,Neima Martinez,Kermit,97.02,127.01,56.7,122.47,306.17,Single-ply,SBD,F,
Girls,100.02,12,Addyson Ortiz,Ozona,90.45,138.35,54.43,108.86,301.64,Single-ply,SBD,F,
Girls,100.02,13,Serenity Valdez,Plains,93.21,117.93,61.23,117.93,297.1,Single-ply,SBD,F,
Girls,100.02,14,Emma Luna,Childress,93.85,99.79,70.31,120.2,290.3,Single-ply,SBD,F,
Girls,117.71,1,Marisela Lozano,Stanton,107.95,199.58,90.72,145.15,435.45,Single-ply,SBD,F,
Girls,117.71,2,Alisha Parks,Coleman,117.03,204.12,95.25,136.08,435.45,Single-ply,SBD,F,
Girls,117.71,3,Katie Sehon,Sundown,115.85,176.9,88.45,161.03,426.38,Single-ply,SBD,F,
Girls,117.71,4,Alyiah Rivera,Lamesa,109.36,185.97,95.25,136.08,417.3,Single-ply,SBD,F,
Girls,117.71,5,Nyia Allen,McCamey,111.18,145.15,95.25,163.29,403.7,Single-ply,SBD,F,
Girls,117.71,6,Jaquelyn Marchan,Ropesville Ropes,109.23,158.76,70.31,133.81,362.87,Single-ply,SBD,F,
Girls,117.71,7,Emma Martinez,Sonora,115.58,131.54,68.04,147.42,347,Single-ply,SBD,F,
Girls,117.71,8,Kelcey Zubiate,Forsan,107.05,136.08,86.18,122.47,344.73,Single-ply,SBD,F,
Girls,117.71,9,Bailee Barnes,McCamey,110.27,136.08,61.23,136.08,333.39,Single-ply,SBD,F,
Girls,117.71,10,Lydia McMickings,Lubbock Roosevelt,114.17,104.33,40.82,129.27,274.42,Single-ply,SBD,F,
Girls,117.71,11,Adelita Arroyos,Lubbock Roosevelt,105.69,95.25,49.9,113.4,258.55,Single-ply,SBD,F,
Girls,117.71,NS,Nayeli Huerta-Acosta,Alpine,,,,,,Single-ply,SBD,F,
Girls,117.71,DQ,Abigail Holloway,Clyde,116.85,108.86,65.77,,,Single-ply,SBD,F,
Girls,117.71,DQ,Ruby Aguilar,Hawley,108.77,,,,,Single-ply,SBD,F,
Girls,117.71+,1,Abbey Lee,Christoval,127.55,165.56,102.06,163.29,430.91,Single-ply,SBD,F,
Girls,117.71+,2,Yanari Martinez,Lamesa,126.82,172.37,86.18,158.76,417.3,Single-ply,SBD,F,
Girls,117.71+,3,Reagan Barrera,Ozona,118.39,165.56,74.84,149.69,390.09,Single-ply,SBD,F,
Girls,117.71+,4,Arlene Solis,Dimmitt,120.56,147.42,77.11,142.88,367.41,Single-ply,SBD,F,
Girls,117.71+,5,Mercedes Aranda,Crane,137.94,151.95,83.91,122.47,358.34,Single-ply,SBD,F,
Girls,117.71+,6,Tashy Steen,Christoval,121.7,136.08,45.36,133.81,315.25,Single-ply,SBD,F,
