Name,Age,Sex,BodyweightKg,WeightClassKg,Squat1Kg,Squat2Kg,Squat3Kg,Best3SquatKg,Bench1Kg,Bench2Kg,Bench3Kg,Best3BenchKg,Deadlift1Kg,Deadlift2Kg,Deadlift3Kg,Best3DeadliftKg,TotalKg,Event,Division,Equipment,Place
Anne-Marie Fogarty,37,F,55.7,56,95,-97.5,-97.5,95,-47.5,47.5,-50,47.5,112.5,122.5,-132.5,122.5,265,SBD,FR-O,Raw,1
Carmella Mattingly,39,F,58.5,60,112.5,120,125,125,67.5,-72.5,-72.5,67.5,130,-137.5,-137.5,130,322.5,SBD,FR-O,Raw,1
Mat Hoosier,21,M,64.5,67.5,172.5,185,192.5,192.5,130,-137.5,137.5,137.5,175,-187.5,-187.5,175,505,SBD,M-O,Single-ply,1
Nicholas Hrabley,17,M,65.8,67.5,127.5,142.5,147.5,147.5,92.5,100,107.5,107.5,142.5,155,165,165,420,SBD,MR-T,Raw,1
Christy Hull,26,F,66,67.5,80,-95,-95,80,45,47.5,-50,47.5,117.5,130,137.5,137.5,265,SBD,FR-O,Raw,1
Tom Urani,63,M,66.7,67.5,,,,,90,-92.5,-97.5,90,,,,,90,B,M-M3,Single-ply,1
Jason Koogler,22,M,73.5,75,205,-212.5,-212.5,205,137.5,142.5,147.5,147.5,215,-227.5,-227.5,215,567.5,SBD,M-O,Single-ply,1
Matt Meyers,33,M,74.7,75,142.5,-157.5,-157.5,142.5,130,-145,-145,130,145,165,-182.5,165,437.5,SBD,M-O,Single-ply,2
Kyle Dent,24,M,70.6,75,107.5,120,132.5,132.5,92.5,100,-105,100,142.5,165,175,175,407.5,SBD,MR-O,Raw,1
Chace Fischer,15,M,74.5,75,90,100,115,115,57.5,65,-75,65,82.5,105,125,125,305,SBD,MR-O,Raw,2
Cindy Hochstetler,55,F,70.8,75,87.5,92.5,97.5,97.5,60,65,70,70,115,122.5,130,130,297.5,SBD,FR-M2,Raw,1
Adam Brown,15,M,74.2,75,60,75,90,90,60,-80,-82.5,60,80,110,-127.5,110,260,SBD,MR-O,Raw,3
Alyssa Johnson,23,F,73.1,75,70,-77.5,-77.5,70,47.5,52.5,-55,52.5,92.5,-97.5,,92.5,215,SBD,FR-O,Raw,1
Micah Marino,20,M,72.9,75,200,217.5,-227.5,217.5,-165,-165,-165,,225,242.5,-255,242.5,,SBD,M-O,Single-ply,DQ
Peter Beckette,30,M,73.5,75,,,,,-120,120,-125,120,,,,,120,B,MR-O,Raw,1
Laramie McMasters,25,M,76.3,82.5,-230,240,-245,240,140,145,-150,145,250,265,275,275,660,SBD,M-O,Single-ply,1
Tom Scagliarini,45,M,82.4,82.5,227.5,-245,252.5,252.5,145,157.5,162.5,162.5,215,230,237.5,237.5,652.5,SBD,M-O,Single-ply,2
Duane Winkler,54,M,82.3,82.5,-230,-230,242.5,242.5,147.5,155,-160,155,232.5,247.5,-255,247.5,645,SBD,M-M2,Single-ply,1
Alfred Castillo,39,M,82.4,82.5,215,-235,245,245,142.5,152.5,,152.5,227.5,-245,,227.5,625,SBD,M-O,Single-ply,3
Adam Miller #5,29,M,81.5,82.5,197.5,205,-215,205,130,137.5,142.5,142.5,215,242.5,245,245,592.5,SBD,MR-O,Raw,1
Craig Lynch,40,M,81.7,82.5,185,195,205,205,142.5,150,157.5,157.5,205,215,227.5,227.5,590,SBD,MR-M1,Raw,1
Chris Koch,42,M,80.7,82.5,187.5,197.5,205,205,140,147.5,-152.5,147.5,190,200,205,205,557.5,SBD,MR-O,Raw,2
Brett Vetter,28,M,80.8,82.5,150,170,-177.5,170,100,110,-120,110,180,195,-202.5,195,475,SBD,MR-O,Raw,3
Dan Winter,30,M,80.8,82.5,147.5,160,165,165,110,115,120,120,165,175,182.5,182.5,467.5,SBD,M-O,Single-ply,4
Brandon Brown,18,M,81.4,82.5,127.5,137.5,150,150,-102.5,102.5,110,110,170,185,192.5,192.5,452.5,SBD,MR-T,Raw,1
Chris Mattingly,38,M,80.2,82.5,152.5,170,-175,170,85,97.5,-100,97.5,152.5,170,177.5,177.5,445,SBD,MR-O,Raw,4
Jonah Berhman,31,M,78.4,82.5,120,130,137.5,137.5,112.5,120,-127.5,120,152.5,175,182.5,182.5,440,SBD,MR-O,Raw,5
Scott Charland,35,M,87.7,90,205,220,,220,-140,147.5,-152.5,147.5,262.5,275,280,280,647.5,SBD,MR-O,Raw,1
Kurt Richardson,38,M,87.2,90,200,215,227.5,227.5,140,-145,147.5,147.5,200,215,,215,590,SBD,M-O,Single-ply,1
Phil Unser,27,M,87.9,90,182.5,195,-200,195,140,150,-155,150,182.5,197.5,202.5,202.5,547.5,SBD,MR-O,Raw,2
Zac Barron,26,M,89.5,90,165,187.5,200,200,105,115,-122.5,115,195,222.5,227.5,227.5,542.5,SBD,MR-O,Raw,3
Duane Trower,43,M,89.1,90,200,-212.5,-217.5,200,130,-137.5,-137.5,130,195,205,-210,205,535,SBD,M-M1,Single-ply,1
Alex Pisoni,21,M,90,90,162.5,180,192.5,192.5,130,-135,-135,130,157.5,190,205,205,527.5,SBD,MR-O,Raw,4
Tim Hobby,32,M,86.9,90,165,175,-185,175,110,115,-122.5,115,205,227.5,-250,227.5,517.5,SBD,MR-O,Raw,5
Jim Stanley,44,M,89.16,90,145,152.5,167.5,167.5,140,145,-150,145,167.5,180,190,190,502.5,SBD,MR-O,Raw,6
Shane Cohan,15,M,89.9,90,142.5,155,160,160,102.5,115,-125,115,182.5,205,227.5,227.5,502.5,SBD,MR-T,Raw,1
Marc Janitch,40,M,87.9,90,122.5,137.5,147.5,147.5,117.5,127.5,-130,127.5,175,190,200,200,475,SBD,MR-O,Raw,7
Chris Abraham,28,M,89.2,90,162.5,172.5,-175,172.5,102.5,-105,-105,102.5,187.5,-202.5,-210,187.5,462.5,SBD,MR-O,Raw,8
Win Featherston,46,M,89.2,90,100,112.5,120,120,85,92.5,95,95,145,157.5,172.5,172.5,387.5,SBD,MR-O,Raw,9
Justin Lewis,12,M,87.8,90,62.5,72.5,82.5,82.5,47.5,55,-60,55,107.5,125,142.5,142.5,280,SBD,MR-Y3,Raw,1
Dillon Horn,18,M,88,90,-187.5,-187.5,-187.5,,145,150,-160,150,,,,,,SBD,M-T,Single-ply,DQ
Jim Layman,67,M,88.2,90,,,,,97.5,-102.5,,97.5,,,,,97.5,B,M-M3,Single-ply,2
Terry Conard,66,M,88.6,90,,,,,-95,-105,105,105,,,,,105,B,M-M3,Single-ply,1
Mike Laux,18,M,89.1,90,,,,,-125,132.5,137.5,137.5,,,,,137.5,B,MR-O,Raw,1
Andy Odenwald,25,M,94.2,100,-267.5,287.5,302.5,302.5,185,200,210,210,260,272.5,-277.5,272.5,785,SBD,M-O,Single-ply,1
Steve Welch,36,M,98.6,100,250,265,272.5,272.5,172.5,182.5,-187.5,182.5,227.5,242.5,-245,242.5,697.5,SBD,M-O,Single-ply,2
Chance Franklin,25,M,94.9,100,210,220,-230,220,152.5,160,-162.5,160,220,237.5,-245,237.5,617.5,SBD,M-O,Single-ply,3
Mike Lippert,41,M,98.84,100,182.5,-192.5,192.5,192.5,167.5,177.5,-182.5,177.5,195,212.5,217.5,217.5,587.5,SBD,M-M1,Single-ply,1
Tim Smallwood,36,M,97.2,100,197.5,212.5,-217.5,212.5,117.5,122.5,-127.5,122.5,217.5,235,-250,235,570,SBD,MR-O,Raw,1
James Bell,55,M,97.8,100,-190,190,-197.5,190,87.5,100,,100,170,185,205,205,495,SBD,MR-M2,Raw,1
Joe Burzinski,17,M,96.3,100,140,160,170,170,100,110,-115,110,165,185,192.5,192.5,472.5,SBD,M-O,Single-ply,4
Luke Dietz,25,M,98.3,100,145,-162.5,-170,145,102.5,107.5,112.5,112.5,187.5,195,197.5,197.5,455,SBD,MR-O,Raw,2
John Schupp,32,M,95.6,100,,,,,-92.5,92.5,105,105,,,,,105,B,MR-O,Raw,1
Thomas Wessel,50,M,96.7,100,,,,,147.5,155,162.5,162.5,,,,,162.5,B,M-M2,Single-ply,1
Dennis Allison,63,M,96.8,100,,,,,105,110,-115,110,,,,,110,B,M-M3,Single-ply,1
Jeff Thiele,29,M,107.8,110,327.5,352.5,-365,352.5,230,-245,-245,230,285,300,-312.5,300,882.5,SBD,M-O,Single-ply,1
Chad Holmes #1,40,M,108.8,110,305,-327.5,-332.5,305,182.5,197.5,-207.5,197.5,322.5,337.5,-357.5,337.5,840,SBD,M-M1,Single-ply,1
Matt Rehan,21,M,108.6,110,247.5,277.5,,277.5,165,177.5,-187.5,177.5,247.5,280,-295,280,735,SBD,MR-O,Raw,1
Chris Glover,31,M,107.5,110,170,190,200,200,135,147.5,155,155,215,240,255,255,610,SBD,MR-O,Raw,2
Greg Teakert,38,M,107.4,110,-205,205,-212.5,205,110,115,-120,115,227.5,245,-250,245,565,SBD,MR-O,Raw,3
Jim Rutten,47,M,101.32,110,-192.5,-192.5,192.5,192.5,130,137.5,-145,137.5,207.5,-215,-215,207.5,537.5,SBD,MR-O,Raw,4
Deante Mitchell,23,M,108.4,110,145,-190,-190,145,125,142.5,155,155,145,205,-227.5,205,505,SBD,MR-O,Raw,5
Noah Gilvin,14,M,105.8,110,122.5,137.5,-147.5,137.5,82.5,92.5,97.5,97.5,145,155,165,165,400,SBD,MR-T,Raw,1
Ross Hetz,41,M,103.8,110,,,,,137.5,142.5,-145,142.5,,,,,142.5,B,MR-O,Raw,1
Nick Weite,31,M,123.7,125,365,375,385,385,250,265,272.5,272.5,340,352.5,362.5,362.5,1020,SBD,M-O,Single-ply,1
Larry Haynie,20,M,118.8,125,-272.5,-272.5,272.5,272.5,165,175,182.5,182.5,205,227.5,240,240,695,SBD,M-O,Single-ply,2
Josh Hunt #1,28,M,119.2,125,175,225,-240,225,147.5,157.5,162.5,162.5,227.5,242.5,-252.5,242.5,630,SBD,MR-O,Raw,1
Aaron Kranz,21,M,117.5,125,207.5,-217.5,,207.5,157.5,167.5,-175,167.5,185,195,210,210,585,SBD,M-O,Single-ply,3
Mike Lowery,29,M,118.5,125,177.5,-200,-200,177.5,142.5,-150,-150,142.5,227.5,250,-272.5,250,570,SBD,M-O,Single-ply,4
Brad Manion,33,M,122.7,125,205,-217.5,-217.5,205,65,,,65,247.5,-262.5,,247.5,517.5,SBD,MR-O,Raw,2
Brady Stewart,28,M,114.6,125,,,,,282.5,297.5,305,305,,,,,305,B,M-O,Single-ply,1
Ali Abusharif,41,M,119,125,137.5,155,165,165,105,110,122.5,122.5,,,,,,SBD,MR-O,Raw,DQ
John Vosler,55,M,124.3,125,,,,,145,155,-165,155,,,,,155,B,M-M2,Single-ply,1
Nick Steele,32,M,136.5,125+,265,285,,285,190,200,212.5,212.5,215,227.5,235,235,732.5,SBD,M-O,Single-ply,1
Jerry Pledger,55,M,147.4,125+,125,182.5,,182.5,145,165,-177.5,165,125,182.5,-227.5,182.5,530,SBD,M-M2,Single-ply,1
Shaun Brooks,32,M,143.3,125+,,,,,132.5,145,152.5,152.5,,,,,152.5,B,MR-O,Raw,2
Pat Dennis,57,M,143.5,125+,,,,,207.5,217.5,-227.5,217.5,,,,,217.5,B,MR-O,Raw,1
Rick Fowler,40,M,90,90,25,,,25,25,,,25,25,,,25,75,SBD,M-O,Single-ply,2
