Division,WeightClassKg,Place,Name,Team,BodyweightKg,Best3SquatKg,Best3BenchKg,Best3DeadliftKg,TotalKg,Equipment,Event,Sex
Boys,51.71,1,Jordan Wilkerson,Keller Central,51.62,167.83,92.99,183.7,444.52,Single-ply,SBD,M
Boys,51.71,2,Stephen Gaut,Keller Central,51.53,142.88,81.65,161.03,385.55,Single-ply,SBD,M
Boys,51.71,3,James Ayers,Lucas Lovejoy,47.26,165.56,97.52,108.86,371.95,Single-ply,SBD,M
Boys,51.71,4,Isaac Villalta,Little Elm,49.71,147.42,70.31,142.88,360.61,Single-ply,SBD,M
Boys,51.71,5,Nic Schnitzius,Dallas Jesuit,50.26,127.01,63.5,145.15,335.66,Single-ply,SBD,M
Boys,51.71,6,Zachary Doyle,Royse City,51.35,133.81,72.57,122.47,328.85,Single-ply,SBD,M
Boys,51.71,7,Dj Williams,Everman,50.53,124.74,63.5,136.08,324.32,Single-ply,SBD,M
Boys,51.71,8,Sam Collier,Lake Dallas,50.62,117.93,77.11,127.01,322.05,Single-ply,SBD,M
Boys,51.71,9,Nathan Sylakhom,Fort Worth Boswell,50.8,106.59,56.7,142.88,306.17,Single-ply,SBD,M
Boys,51.71,10,Christian Turner,Carrollton Turner,51.62,113.4,68.04,111.13,292.57,Single-ply,SBD,M
Boys,51.71,11,Justin Sitz,Weatherford,49.8,102.06,61.23,124.74,288.03,Single-ply,SBD,M
Boys,55.79,1,Brady Macaulay,Everman,55.43,158.76,83.91,190.51,433.18,Single-ply,SBD,M
Boys,55.79,2,Arlind Queriman,Aledo,55.34,176.9,108.86,142.88,428.64,Single-ply,SBD,M
Boys,55.79,3,Anthony Phimmasone,Fort Worth Boswell,55.43,151.95,79.38,172.37,403.7,Single-ply,SBD,M
Boys,55.79,4,Ever Barron,Everman,54.98,170.1,95.25,136.08,401.43,Single-ply,SBD,M
Boys,55.79,5,Emmet Halm,Dallas Jesuit,54.7,127.01,83.91,147.42,358.34,Single-ply,SBD,M
Boys,55.79,6,Kyle Humphrey,Sherman,55.43,122.47,99.79,136.08,358.34,Single-ply,SBD,M
Boys,55.79,7,Triston McDonald,Mansfield Timberview,53.71,131.54,79.38,133.81,344.73,Single-ply,SBD,M
Boys,55.79,8,Todd Henderson,Richardson Lake Highlands,55.16,122.47,77.11,142.88,342.46,Single-ply,SBD,M
Boys,55.79,9,Will Nickols,Dallas Jesuit,53.43,117.93,74.84,145.15,337.93,Single-ply,SBD,M
Boys,55.79,DQ,Christian Cabra,Bishop Lynch,54.16,142.88,83.91,,,Single-ply,SBD,M
Boys,55.79,DQ,Logen Combs,Royse City,54.57,163.29,,,,Single-ply,SBD,M
Boys,59.87,1,Edgar Aguirre,Everman,59.33,204.12,102.06,192.78,498.95,Single-ply,SBD,M
Boys,59.87,2,Luke Kirkbride,Denison,58.79,174.63,95.25,190.51,460.4,Single-ply,SBD,M
Boys,59.87,3,Michael Parsons,Bishop Lynch,58.88,167.83,106.59,183.7,458.13,Single-ply,SBD,M
Boys,59.87,4,Kevin Weiss,Plano,59.87,176.9,97.52,165.56,439.98,Single-ply,SBD,M
Boys,59.87,5,De'Neric Pinson,Mansfield Lake Ridge,59.24,181.44,99.79,154.22,435.45,Single-ply,SBD,M
Boys,59.87,6,Greg Page,Prosper,58.33,151.95,99.79,163.29,415.04,Single-ply,SBD,M
Boys,59.87,7,Elisha Jones,Cedar Hill,59.6,158.76,92.99,151.95,403.7,Single-ply,SBD,M
Boys,59.87,8,Donovan Smith,Carrollton Turner,59.87,140.61,86.18,156.49,383.29,Single-ply,SBD,M
Boys,59.87,9,Zechariah Dixon,Richardson Berkner,59.42,113.4,102.06,158.76,374.21,Single-ply,SBD,M
Boys,59.87,10,Hunter Martin #2,Azle,59.06,136.08,70.31,161.03,367.41,Single-ply,SBD,M
Boys,59.87,11,Julian Castano,Fort Worth Boswell,58.88,122.47,77.11,131.54,331.12,Single-ply,SBD,M
Boys,59.87,DQ,Will Best,Frisco Wakeland,57.33,,,,,Single-ply,SBD,M
Boys,67.13,1,Wilson Kirkbride,Denison,64.41,226.8,113.4,204.12,544.31,Single-ply,SBD,M
Boys,67.13,2,Joseph Terrance,Mansfield Timberview,66.77,204.12,122.47,183.7,510.29,Single-ply,SBD,M
Boys,67.13,3,Edward Zeng,Frisco Liberty,64.68,204.12,86.18,206.38,496.68,Single-ply,SBD,M
Boys,67.13,4,Kylen Hart,Weatherford,66.04,190.51,115.67,190.51,496.68,Single-ply,SBD,M
Boys,67.13,5,Daniel Van Amerongen,Dallas Jesuit,66.41,183.7,102.06,206.38,492.15,Single-ply,SBD,M
Boys,67.13,6,Tajohn Livingston,South Garland,62.69,181.44,88.45,215.46,485.34,Single-ply,SBD,M
Boys,67.13,7,Tres Thomas,Mansfield Timberview,63.68,185.97,97.52,201.85,485.34,Single-ply,SBD,M
Boys,67.13,8,Josh Fieferik,Frisco Reedy,65.41,183.7,113.4,174.63,471.74,Single-ply,SBD,M
Boys,67.13,9,Kai Green,Keller Central,67.04,181.44,86.18,197.31,464.93,Single-ply,SBD,M
Boys,67.13,10,Camron Gray,Carrollton Creekview,65.77,185.97,92.99,181.44,460.4,Single-ply,SBD,M
Boys,67.13,11,Edward Onwuka,Mansfield Timberview,67.13,170.1,108.86,181.44,460.4,Single-ply,SBD,M
Boys,67.13,12,Tj Bah,Hurst Bell,66.86,181.44,90.72,185.97,458.13,Single-ply,SBD,M
Boys,74.84,1,Jett Ertle,Keller,74.57,265.35,142.88,233.6,641.83,Single-ply,SBD,M
Boys,74.84,2,Noah Moreno,Keller Central,74.3,249.48,142.88,215.46,607.81,Single-ply,SBD,M
Boys,74.84,3,Carlos Encarnacion,Keller Central,74.66,222.26,115.67,226.8,564.72,Single-ply,SBD,M
Boys,74.84,4,Presley Luce,Bishop Lynch,73.03,188.24,133.81,229.06,551.11,Single-ply,SBD,M
Boys,74.84,5,Jacob Yochim,Keller Timber Creek,72.94,231.33,108.86,208.65,548.85,Single-ply,SBD,M
Boys,74.84,6,DeVante Clayton,Sherman,72.3,199.58,120.2,226.8,546.58,Single-ply,SBD,M
Boys,74.84,7,Justin Smith #25,Frisco Centennial,74.57,219.99,117.93,199.58,537.51,Single-ply,SBD,M
Boys,74.84,8,Julio Leon,Carrollton Smith,74.84,195.04,113.4,226.8,535.24,Single-ply,SBD,M
Boys,74.84,9,Tony Miknavich,Garland Rowlett,74.12,201.85,117.93,208.65,528.44,Single-ply,SBD,M
Boys,74.84,10,Tatum Price #1,Aledo,74.21,192.78,131.54,204.12,528.44,Single-ply,SBD,M
Boys,74.84,11,Hung Tran,Carrollton Creekview,74.21,204.12,111.13,201.85,517.1,Single-ply,SBD,M
Boys,74.84,12,Tyrone Pettiford,North Crowley,72.3,197.31,86.18,226.8,510.29,Single-ply,SBD,M
Boys,74.84,DQ,Ty McFail,Denison,73.21,190.51,127.01,,,Single-ply,SBD,M
Boys,82.1,1,Khamondre Phillips,Richardson Lake Highlands,81.1,240.4,154.22,204.12,598.74,Single-ply,SBD,M
Boys,82.1,2,Grayson Porche,Aledo,78.65,222.26,133.81,238.14,594.21,Single-ply,SBD,M
Boys,82.1,3,Curtis Sanders,Cedar Hill,81.47,229.06,138.35,226.8,594.21,Single-ply,SBD,M
Boys,82.1,4,Isaiah Ganaway,Keller Central,79.56,222.26,120.2,229.06,571.53,Single-ply,SBD,M
Boys,82.1,5,Steven Jackson #1,Cedar Hill,80.38,219.99,115.67,231.33,566.99,Single-ply,SBD,M
Boys,82.1,6,Samuel Adedire,Mansfield Summit,81.74,183.7,129.27,249.48,562.45,Single-ply,SBD,M
Boys,82.1,7,Zack Luna,Keller,80.56,215.46,133.81,210.92,560.19,Single-ply,SBD,M
Boys,82.1,8,Tanner Knox,Weatherford,80.92,192.78,129.27,226.8,548.85,Single-ply,SBD,M
Boys,82.1,9,Mohammed Mazzouj,Carrollton Smith,81.19,208.65,120.2,215.46,544.31,Single-ply,SBD,M
Boys,82.1,10,River Hall,Weatherford,78.11,197.31,142.88,199.58,539.77,Single-ply,SBD,M
Boys,82.1,11,Kufre Upkong,Mansfield Summit,81.56,204.12,102.06,213.19,519.36,Single-ply,SBD,M
Boys,82.1,12,Stanley Coleman,Keller Central,79.02,215.46,122.47,158.76,496.68,Single-ply,SBD,M
Boys,89.81,1,Ty Nicholson,Keller Timber Creek,86.27,267.62,149.69,249.48,666.78,Single-ply,SBD,M
Boys,89.81,2,Ethan Herron,Weatherford,88.72,263.08,138.35,240.4,641.83,Single-ply,SBD,M
Boys,89.81,3,Joel Kayoka,Hurst Bell,86,235.87,131.54,267.62,635.03,Single-ply,SBD,M
Boys,89.81,4,Landon Sleeper,Keller Central,89.72,272.16,142.88,219.99,635.03,Single-ply,SBD,M
Boys,89.81,5,Cody Pettit,Mansfield Summit,89.09,249.48,142.88,219.99,612.35,Single-ply,SBD,M
Boys,89.81,6,Dexter Green,Frisco Liberty,85.64,219.99,145.15,242.67,607.81,Single-ply,SBD,M
Boys,89.81,7,Roy Goins,Little Elm,88,226.8,133.81,240.4,601.01,Single-ply,SBD,M
Boys,89.81,8,Jacob Veres,Frisco Wakeland,88.81,226.8,151.95,210.92,589.67,Single-ply,SBD,M
Boys,89.81,9,Kijohn McCoy,Cedar Hill,84.28,219.99,122.47,215.46,557.92,Single-ply,SBD,M
Boys,89.81,10,Jared Wheeler,Azle,87.72,192.78,127.01,210.92,530.7,Single-ply,SBD,M
Boys,89.81,11,Beni Kabongo,Hurst Bell,86.73,188.24,124.74,215.46,528.44,Single-ply,SBD,M
Boys,89.81,DQ,Das Somdipto,Carrollton Turner,87.18,215.46,147.42,,,Single-ply,SBD,M
Boys,99.79,1,Cruz Villegas,Everman,98.34,274.42,142.88,272.16,689.46,Single-ply,SBD,M
Boys,99.79,2,Zach Helton,Plano,95.07,256.28,129.27,272.16,657.71,Single-ply,SBD,M
Boys,99.79,3,Rodney Banks,Keller,96.25,249.48,174.63,233.6,657.71,Single-ply,SBD,M
Boys,99.79,4,Malyk Newsome,Everman,98.7,260.82,142.88,254.01,657.71,Single-ply,SBD,M
Boys,99.79,5,Christian Hernandez,Cedar Hill,94.35,254.01,151.95,242.67,648.64,Single-ply,SBD,M
Boys,99.79,6,Joseph Torres,Hurst Bell,98.97,233.6,176.9,219.99,630.49,Single-ply,SBD,M
Boys,99.79,7,Brock Prengler,Lucas Lovejoy,98.79,240.4,147.42,235.87,623.69,Single-ply,SBD,M
Boys,99.79,8,Larry Green,Prosper,95.53,226.8,156.49,235.87,619.15,Single-ply,SBD,M
Boys,99.79,9,Sergio Arriaga,Lucas Lovejoy,98.52,244.94,129.27,229.06,603.28,Single-ply,SBD,M
Boys,99.79,10,Sam Salas,Everman,96.98,238.14,122.47,215.46,576.06,Single-ply,SBD,M
Boys,99.79,DQ,Tristan Myers,Carrollton Creekview,98.43,254.01,183.7,,,Single-ply,SBD,M
Boys,99.79,DQ,Jimmy Tran,Wichita Falls,99.25,,,,,Single-ply,SBD,M
Boys,109.77,1,Lazaro Garcia,South Garland,109.59,294.84,163.29,265.35,723.48,Single-ply,SBD,M
Boys,109.77,2,Jamie Cortez,Royse City,107.05,288.03,145.15,263.08,696.26,Single-ply,SBD,M
Boys,109.77,3,Sean Payne,Keller,106.32,288.03,170.1,226.8,684.92,Single-ply,SBD,M
Boys,109.77,4,Kade Ashley,Lucas Lovejoy,103.78,265.35,190.51,224.53,680.39,Single-ply,SBD,M
Boys,109.77,5,Cameron Summerville,Mansfield Timberview,102.78,226.8,165.56,256.28,648.64,Single-ply,SBD,M
Boys,109.77,6,Cody Henderson,Weatherford,106.41,249.48,163.29,235.87,648.64,Single-ply,SBD,M
Boys,109.77,7,Spencer King,Justin Northwest,104.69,258.55,127.01,249.48,635.03,Single-ply,SBD,M
Boys,109.77,8,Prince Omorogbe,Mansfield Summit,103.6,233.6,151.95,231.33,616.89,Single-ply,SBD,M
Boys,109.77,9,Clay Patterson #2,Frisco Reedy,105.32,242.67,133.81,235.87,612.35,Single-ply,SBD,M
Boys,109.77,10,Leon Young,Cedar Hill,103.06,256.28,131.54,215.46,603.28,Single-ply,SBD,M
Boys,109.77,11,Drew Williams,Denison,108.68,247.21,156.49,197.31,601.01,Single-ply,SBD,M
Boys,109.77,12,Chris Boone,Duncanville,106.59,229.06,140.61,208.65,578.33,Single-ply,SBD,M
Boys,109.77,DQ,Obed Guerrero,Carrollton Turner,104.33,272.16,,,,Single-ply,SBD,M
Boys,124.74,1,Carson Shaffer,Prosper,124.65,265.35,210.92,226.8,703.07,Single-ply,SBD,M
Boys,124.74,2,Willie Tutt,Everman,123.1,306.17,142.88,244.94,694,Single-ply,SBD,M
Boys,124.74,3,Talwinder Singh,North Crowley,121.74,272.16,151.95,251.74,675.85,Single-ply,SBD,M
Boys,124.74,4,Quanard Carter,Mansfield Summit,120.2,254.01,163.29,240.4,657.71,Single-ply,SBD,M
Boys,124.74,5,Steven Rico,Carrollton Turner,120.75,254.01,188.24,210.92,653.17,Single-ply,SBD,M
Boys,124.74,6,Kyle Brooks,Denison,123.1,233.6,145.15,226.8,605.55,Single-ply,SBD,M
Boys,124.74,7,Max Michaels,Fort Worth Boswell,121.74,226.8,170.1,204.12,601.01,Single-ply,SBD,M
Boys,124.74,8,Cesar Sandoval,Frisco Reedy,111.49,226.8,145.15,217.72,589.67,Single-ply,SBD,M
Boys,124.74,9,Rudy Vasquez,Sherman,121.47,251.74,136.08,201.85,589.67,Single-ply,SBD,M
Boys,124.74,DQ,Jaden Webb,Royse City,117.57,269.89,142.88,,,Single-ply,SBD,M
Boys,124.74,DQ,Jack Huffman,Richardson Berkner,123.2,226.8,,,,Single-ply,SBD,M
Boys,124.74+,1,Caleb Reed,Everman,132.63,340.19,181.44,297.1,818.73,Single-ply,SBD,M
Boys,124.74+,2,Izeya Floyd,Frisco Reedy,141.43,306.17,165.56,260.82,732.55,Single-ply,SBD,M
Boys,124.74+,3,Josh Gilliam,Mansfield Timberview,150.23,317.51,174.63,215.46,707.6,Single-ply,SBD,M
Boys,124.74+,4,Nicholas Carbahal,Carrollton Turner,134.35,285.76,188.24,226.8,700.8,Single-ply,SBD,M
Boys,124.74+,5,Tucker Rowland,Frisco Heritage,139.16,260.82,188.24,238.14,687.19,Single-ply,SBD,M
Boys,124.74+,6,TK Walton,Sherman,140.8,247.21,165.56,260.82,673.58,Single-ply,SBD,M
Boys,124.74+,7,Alex Ederson,Keller Fossil Ridge,140.34,263.08,131.54,272.16,666.78,Single-ply,SBD,M
Boys,124.74+,8,Gabriel Aplicano-Tito,Garland Rowlett,126.92,238.14,145.15,235.87,619.15,Single-ply,SBD,M
Boys,124.74+,DQ,Hunter May,Richardson Pearce,133.99,,,,,Single-ply,SBD,M
Boys,124.74+,DQ,Brendan Fredericks,Northwest Eaton,131.54,,,,,Single-ply,SBD,M
Boys,124.74+,DQ,Jamadric Mackey,Richardson Lake Highlands,139.98,249.48,138.35,,,Single-ply,SBD,M
Boys,124.74+,DQ,Jaylin Hendrix,Everman,150.59,,,,,Single-ply,SBD,M
