Division,WeightClassKg,Place,Name,Team,BodyweightKg,Best3SquatKg,Best3BenchKg,Best3DeadliftKg,TotalKg,Equipment,Event,Sex,BirthDate
Boys,51.71,1,Malachi Flores,Plainview,47.26,113.4,63.5,102.06,278.96,Single-ply,SBD,M,
Boys,55.79,1,Santos Figueroa,Plainview,52.75,145.15,74.84,156.49,376.48,Single-ply,SBD,M,
Boys,59.87,2,Dillon Bruington,Floydada,59.42,145.15,81.65,149.69,376.48,Single-ply,SBD,M,
Boys,67.13,1,Alex Garcia #12,Plainview,60.06,149.69,86.18,163.29,399.16,Single-ply,SBD,M,
Boys,67.13,2,Roger Marquez,Plainview,67.13,129.27,77.11,154.22,360.61,Single-ply,SBD,M,
Boys,67.13,3,Matthew Luna,Floydada,62.51,136.08,77.11,127.01,340.19,Single-ply,SBD,M,
Boys,67.13,4,Phillip Rodriguez,Floydada,60.24,102.06,65.77,122.47,290.3,Single-ply,SBD,M,
Boys,74.84,1,Izik Godino,Plainview,67.31,174.63,111.13,172.37,458.13,Single-ply,SBD,M,
Boys,74.84,1,Alex Carmona,Floydada,74.21,240.4,145.15,222.26,607.81,Single-ply,SBD,M,
Boys,74.84,2,Jacob Lewis,Canyon Randall,74.62,185.97,113.4,185.97,485.34,Single-ply,SBD,M,
Boys,74.84,3,Cristian Hernandez,Floydada,69.31,127.01,70.31,122.47,319.78,Single-ply,SBD,M,
Boys,82.1,1,Dagan Barela,Plainview,79.38,260.82,156.49,244.94,662.24,Single-ply,SBD,M,
Boys,82.1,2,Alan Lopez,Plainview,76.34,217.72,133.81,197.31,548.85,Single-ply,SBD,M,
Boys,82.1,3,Drew Gonzalez,Plainview,78.11,215.46,131.54,195.04,542.04,Single-ply,SBD,M,
Boys,82.1,4,Ernest Godino,Plainview,77.47,210.92,129.27,183.7,523.9,Single-ply,SBD,M,
Boys,82.1,5,Marcos Del Fierro,Canyon Randall,79.65,174.63,136.08,174.63,485.34,Single-ply,SBD,M,
Boys,82.1,6,Andrew Suarez,Floydada,77.52,170.1,106.59,188.24,464.93,Single-ply,SBD,M,
Boys,89.81,1,Evan Height,Plainview,83.01,185.97,106.59,183.7,476.27,Single-ply,SBD,M,
Boys,89.81,2,Gerardo Rivera,Plainview,85.14,167.83,108.86,172.37,449.06,Single-ply,SBD,M,
Boys,89.81,3,Adam Villa,Plainview,84.14,154.22,102.06,165.56,421.84,Single-ply,SBD,M,
Boys,99.79,1,Dustin Bledsoe,Canyon,96.3,235.87,136.08,226.8,598.74,Single-ply,SBD,M,
Boys,99.79,2,Jordyn Vasquez,Plainview,96.34,195.04,133.81,199.58,528.44,Single-ply,SBD,M,
Boys,99.79,3,Jeff McDonald,Canyon,99.79,192.78,102.06,183.7,478.54,Single-ply,SBD,M,
Boys,99.79,4,Jose Castaneda,Canyon Randall,95.03,174.63,115.67,188.24,478.54,Single-ply,SBD,M,
Boys,99.79,5,Eric Baucom,Canyon Randall,90.58,158.76,113.4,172.37,444.52,Single-ply,SBD,M,
Boys,109.77,1,Josue Castillo,Canyon,102.24,231.33,147.42,183.7,562.45,Single-ply,SBD,M,
Boys,109.77,2,Marcus Collins #3,Floydada,104.96,181.44,106.59,192.78,480.81,Single-ply,SBD,M,
Boys,124.74,1,Shane Whitworth,Canyon,119.34,285.76,195.04,244.94,725.75,Single-ply,SBD,M,
Boys,139.71,1,Rodrigo Gomez,Canyon Randall,135.13,204.12,154.22,201.85,560.19,Single-ply,SBD,M,
Boys,,NS,Dario Bressler,Canyon,,,,,,Single-ply,SBD,M,
