Division,WeightClassKg,Place,Name,Team,BodyweightKg,Best3SquatKg,Best3BenchKg,Best3DeadliftKg,TotalKg,Equipment,Event,Sex
Boys,51.71,1,Jarred Curtis,Post,51.53,133.81,83.91,138.35,356.07,Single-ply,SBD,M
Boys,55.79,2,Timothy Ortiz,Odessa,51.89,120.2,74.84,138.35,333.39,Single-ply,SBD,M
Boys,51.71,3,Andrew Paredez,Big Spring,50.17,92.99,70.31,129.27,292.57,Single-ply,SBD,M
Boys,51.71,4,Damond Humiston,Snyder,51.26,113.4,56.7,113.4,283.5,Single-ply,SBD,M
Boys,51.71,5,Austin Perkins,Abilene Cooper,48.44,97.52,52.16,106.59,256.28,Single-ply,SBD,M
Boys,51.71,6,Aaron Carroll,Big Spring,37.47,70.31,24.95,77.11,172.37,Single-ply,SBD,M
Boys,51.71,7,Saxton Stewart,Roscoe,37.65,54.43,34.02,61.23,149.69,Single-ply,SBD,M
Boys,55.79,1,Tyler Nairn,Big Spring,55.34,174.63,99.79,172.37,446.79,Single-ply,SBD,M
Boys,59.87,2,Andrew Flores,Abilene,56.02,136.08,79.38,142.88,358.34,Single-ply,SBD,M
Boys,55.79,3,Ben Lantrip,Tuscola Jim Ned,55.79,117.93,70.31,154.22,342.46,Single-ply,SBD,M
Boys,55.79,4,Colter Reed,Sweetwater,54.52,117.93,65.77,136.08,319.78,Single-ply,SBD,M
Boys,55.79,5,Gilbert Borrego,Merkel,52.44,97.52,56.7,138.35,292.57,Single-ply,SBD,M
Boys,55.79,6,Austyn Deal,Clyde,54.34,102.06,70.31,113.4,285.76,Single-ply,SBD,M
Boys,59.87,7,Nathan Browning,Sweetwater,56.02,99.79,70.31,99.79,269.89,Single-ply,SBD,M
Boys,67.13,1,Cambry Gilbert,Post,60.06,181.44,92.99,190.51,464.93,Single-ply,SBD,M
Boys,59.87,2,Jay Lomas,Sweetwater,59.87,156.49,97.52,167.83,421.84,Single-ply,SBD,M
Boys,59.87,3,Christian Alexander,Tuscola Jim Ned,58.79,142.88,88.45,149.69,381.02,Single-ply,SBD,M
Boys,59.87,4,Andrew Martinez,Coahoma,59.6,142.88,83.91,154.22,381.02,Single-ply,SBD,M
Boys,59.87,5,Drew Votaw,Merkel,59.42,124.74,83.91,133.81,342.46,Single-ply,SBD,M
Boys,59.87,6,Britton Heath,Coahoma,56.61,136.08,63.5,136.08,335.66,Single-ply,SBD,M
Boys,67.13,7,Austin Willman,Roscoe,60.1,115.67,65.77,108.86,290.3,Single-ply,SBD,M
Boys,67.13,DQ,Braiden Moore,Roscoe,59.96,,,,,Single-ply,SBD,M
Boys,67.13,1,Ivan Arroyo,Odessa,65.41,199.58,136.08,208.65,544.31,Single-ply,SBD,M
Boys,67.13,2,DJ Brown,Post,66.22,181.44,115.67,206.38,503.49,Single-ply,SBD,M
Boys,67.13,3,Robert Martinez,Big Spring,65.95,181.44,115.67,188.24,485.34,Single-ply,SBD,M
Boys,67.13,4,Jeremy Reyes,Odessa,62.87,183.7,97.52,201.85,483.08,Single-ply,SBD,M
Boys,67.13,5,Mario Manquero,Garden City,63.05,174.63,102.06,190.51,467.2,Single-ply,SBD,M
Boys,67.13,6,Matt Anderson,Coleman,60.69,170.1,97.52,174.63,442.25,Single-ply,SBD,M
Boys,67.13,7,Ismael Ramirez,Garden City,65.14,156.49,95.25,174.63,426.38,Single-ply,SBD,M
Boys,67.13,8,Alejo Rodriguez,Post,65.59,151.95,90.72,163.29,405.97,Single-ply,SBD,M
Boys,67.13,9,Joseph Alcala,San Angelo Lake View,65.32,136.08,86.18,172.37,394.63,Single-ply,SBD,M
Boys,67.13,10,Paul Cortez,Coahoma,66.32,147.42,102.06,145.15,394.63,Single-ply,SBD,M
Boys,74.84,11,Tristan Wegener,Anson,67.36,158.76,83.91,142.88,385.55,Single-ply,SBD,M
Boys,67.13,12,Max Nemir,Roscoe,66.41,156.49,86.18,136.08,378.75,Single-ply,SBD,M
Boys,67.13,13,Sammy Soto,Post,65.5,138.35,92.99,145.15,376.48,Single-ply,SBD,M
Boys,67.13,14,Chase Hicks,Clyde,65.86,136.08,88.45,140.61,365.14,Single-ply,SBD,M
Boys,67.13,15,Julio Calderon,Abilene Cooper,65.95,124.74,86.18,149.69,360.61,Single-ply,SBD,M
Boys,67.13,16,Brock Vasquez,Hermleigh,65.68,131.54,79.38,142.88,353.8,Single-ply,SBD,M
Boys,67.13,17,Rafael Aguayo,Roscoe,66.22,124.74,74.84,124.74,324.32,Single-ply,SBD,M
Boys,67.13,18,Jacob Lomas,Roscoe,62.32,111.13,61.23,120.2,292.57,Single-ply,SBD,M
Boys,67.13,DQ,Brendan Garza,Snyder,63.5,138.35,,,,Single-ply,SBD,M
Boys,74.84,1,Angel Moreno,San Angelo Lake View,74.66,249.48,149.69,213.19,612.35,Single-ply,SBD,M
Boys,74.84,2,Dante Gomez,Clyde,72.76,226.8,124.74,210.92,562.45,Single-ply,SBD,M
Boys,82.1,3,Landon Leschper,Anson,75.07,185.97,129.27,195.04,510.29,Single-ply,SBD,M
Boys,74.84,4,Jacob Hines,Abilene,71.67,204.12,99.79,204.12,508.02,Single-ply,SBD,M
Boys,74.84,5,Cp Aguilera,San Angelo Lake View,73.21,181.44,111.13,208.65,501.22,Single-ply,SBD,M
Boys,74.84,6,Blaine Reece,Post,68.67,195.04,99.79,172.37,467.2,Single-ply,SBD,M
Boys,74.84,7,Jose Juarez #4,Snyder,72.85,158.76,99.79,204.12,462.66,Single-ply,SBD,M
Boys,74.84,8,Colton Honea,Tuscola Jim Ned,73.12,158.76,111.13,188.24,458.13,Single-ply,SBD,M
Boys,74.84,9,Juan Luna,San Angelo Lake View,72.85,170.1,99.79,185.97,455.86,Single-ply,SBD,M
Boys,74.84,10,Zach Gartman,Cross Plains,72.3,167.83,83.91,172.37,424.11,Single-ply,SBD,M
Boys,74.84,11,Joseph Rees,Tuscola Jim Ned,74.12,147.42,83.91,185.97,417.3,Single-ply,SBD,M
Boys,74.84,12,Tanner Turner,Merkel,70.94,154.22,90.72,163.29,408.23,Single-ply,SBD,M
Boys,74.84,13,Matt Holmes,Merkel,74.3,142.88,104.33,158.76,405.97,Single-ply,SBD,M
Boys,74.84,14,Aj Renteria,Roscoe,73.66,154.22,92.99,149.69,396.89,Single-ply,SBD,M
Boys,74.84,15,Blake Boren,Post,68.86,142.88,97.52,151.95,392.36,Single-ply,SBD,M
Boys,74.84,16,Dustin Moore,Anson,70.13,145.15,97.52,145.15,387.82,Single-ply,SBD,M
Boys,74.84,17,Malcolm Thompson,Merkel,71.85,138.35,81.65,140.61,360.61,Single-ply,SBD,M
Boys,82.1,18,Tyler Mitchell,Hermleigh,74.93,129.27,92.99,136.08,358.34,Single-ply,SBD,M
Boys,74.84,19,Branson Guelker,Sweetwater,70.22,129.27,79.38,145.15,353.8,Single-ply,SBD,M
Boys,74.84,20,James Briggs,Cross Plains,70.4,122.47,70.31,151.95,344.73,Single-ply,SBD,M
Boys,74.84,DQ,Stephen Le,Sweetwater,74.3,,,,,Single-ply,SBD,M
Boys,82.1,DQ,Jamen Sanchez,Coahoma,75.07,161.03,77.11,158.76,,Single-ply,SBD,M
Boys,82.1,1,Caleb Hudson,San Angelo Lake View,75.57,192.78,120.2,231.33,544.31,Single-ply,SBD,M
Boys,82.1,2,D'Vincent Allison,Snyder,80.29,208.65,127.01,206.38,542.04,Single-ply,SBD,M
Boys,82.1,3,Austin Marlett,Sweetwater,80.74,190.51,117.93,215.46,523.9,Single-ply,SBD,M
Boys,82.1,4,Daniel Salazar,Abilene,81.47,199.58,127.01,190.51,517.1,Single-ply,SBD,M
Boys,82.1,5,Tyler Gil,Abilene Cooper,81.92,174.63,129.27,208.65,512.56,Single-ply,SBD,M
Boys,82.1,6,Bryan Smith #5,Post,79.65,174.63,120.2,204.12,498.95,Single-ply,SBD,M
Boys,82.1,7,Morgan Smith #9,Tuscola Jim Ned,79.56,181.44,115.67,188.24,485.34,Single-ply,SBD,M
Boys,82.1,8,Dalton Gilliam,Cross Plains,81.19,176.9,108.86,192.78,478.54,Single-ply,SBD,M
Boys,82.1,9,Jacob Guzman,Hermleigh,78.83,172.37,111.13,172.37,455.86,Single-ply,SBD,M
Boys,82.1,10,Junior Lawhon,Sweetwater,80.92,181.44,111.13,163.29,455.86,Single-ply,SBD,M
Boys,82.1,11,Cord Schneffler,Clyde,81.37,181.44,92.99,136.08,410.5,Single-ply,SBD,M
Boys,82.1,12,Brenden Pando,San Angelo Lake View,78.65,149.69,81.65,167.83,399.16,Single-ply,SBD,M
Boys,82.1,13,Jorge Salais,Garden City,81.92,151.95,68.04,172.37,392.36,Single-ply,SBD,M
Boys,82.1,14,Ray Bohall,Roscoe,81.47,124.74,74.84,136.08,335.66,Single-ply,SBD,M
Boys,82.1,15,Kenny Bonnette,Merkel,76.66,127.01,70.31,136.08,333.39,Single-ply,SBD,M
Boys,82.1,DQ,Therron Jones,Coleman,81.28,,,,,Single-ply,SBD,M
Boys,89.81,1,Dayton Dennard,Odessa,83.37,215.46,129.27,226.8,571.53,Single-ply,SBD,M
Boys,89.81,2,William Coleman,Abilene Cooper,87.91,208.65,129.27,213.19,551.11,Single-ply,SBD,M
Boys,99.79,3,Jon Matthews,Tuscola Jim Ned,90.04,195.04,102.06,190.51,487.61,Single-ply,SBD,M
Boys,99.79,4,Dylan Jimenez,Sweetwater,89.9,183.7,104.33,195.04,483.08,Single-ply,SBD,M
Boys,89.81,5,Chris Carlin,Abilene,88.63,179.17,102.06,188.24,469.47,Single-ply,SBD,M
Boys,89.81,6,Zach Garcia,Sweetwater,84.82,165.56,120.2,181.44,467.2,Single-ply,SBD,M
Boys,99.79,7,Jayson Walden,Post,89.99,195.04,106.59,165.56,467.2,Single-ply,SBD,M
Boys,89.81,8,Paul Lowe,Abilene Cooper,87.91,190.51,117.93,145.15,453.59,Single-ply,SBD,M
Boys,89.81,9,Nain Martinez,Cross Plains,87.27,172.37,95.25,167.83,435.45,Single-ply,SBD,M
Boys,89.81,10,Slaton Hansen,Anson,87.54,154.22,95.25,183.7,433.18,Single-ply,SBD,M
Boys,89.81,11,Jake Villanueva,Snyder,86.45,158.76,97.52,174.63,430.91,Single-ply,SBD,M
Boys,89.81,12,Slade Little,Clyde,83.64,170.1,95.25,154.22,419.57,Single-ply,SBD,M
Boys,99.79,13,Raymond Delgado,Sweetwater,89.99,158.76,97.52,158.76,415.04,Single-ply,SBD,M
Boys,89.81,14,David Luera,San Angelo Lake View,88.99,163.29,74.84,172.37,410.5,Single-ply,SBD,M
Boys,89.81,15,Taylon Kincaid,Coahoma,83.82,151.95,90.72,154.22,396.89,Single-ply,SBD,M
Boys,89.81,16,Douglas Gilbert,Hermleigh,84.64,149.69,97.52,145.15,392.36,Single-ply,SBD,M
Boys,89.81,17,Pablo Garza,Anson,88.81,158.76,70.31,158.76,387.82,Single-ply,SBD,M
Boys,89.81,18,Collin Gardner,Anson,85.64,124.74,77.11,120.2,322.05,Single-ply,SBD,M
Boys,89.81,19,Roady Mann,Roscoe,85.46,111.13,68.04,133.81,312.98,Single-ply,SBD,M
Boys,99.79,1,Reagan Cooke,Abilene,95.62,238.14,151.95,215.46,605.55,Single-ply,SBD,M
Boys,99.79,2,Shawn Walker,Garden City,93.71,215.46,147.42,217.72,580.6,Single-ply,SBD,M
Boys,99.79,3,Michael Woods,Merkel,98.34,229.06,131.54,217.72,578.33,Single-ply,SBD,M
Boys,99.79,4,Joe Haddad,Clyde,97.98,204.12,145.15,215.46,564.72,Single-ply,SBD,M
Boys,99.79,5,Quinn Harrell,Abilene Cooper,99.34,215.46,149.69,199.58,564.72,Single-ply,SBD,M
Boys,109.77,6,Nathan Schneider,Big Spring,100.02,215.46,129.27,204.12,548.85,Single-ply,SBD,M
Boys,99.79,7,Damian Guevara,Abilene,95.44,215.46,145.15,185.97,546.58,Single-ply,SBD,M
Boys,99.79,8,Edgar Contreras,Odessa,99.34,204.12,122.47,201.85,528.44,Single-ply,SBD,M
Boys,99.79,9,Noah Hernandez,Odessa,92.99,195.04,104.33,204.12,503.49,Single-ply,SBD,M
Boys,99.79,10,Drew Campton,Anson,95.07,197.31,108.86,195.04,501.22,Single-ply,SBD,M
Boys,99.79,11,Anthony Williams,Big Spring,97.43,208.65,117.93,149.69,476.27,Single-ply,SBD,M
Boys,99.79,12,Jonathan Arrieta,Anson,98.25,183.7,95.25,183.7,462.66,Single-ply,SBD,M
Boys,99.79,13,Gabriel Reynoza,Hermleigh,91.9,158.76,106.59,174.63,439.98,Single-ply,SBD,M
Boys,99.79,14,Sean Humphrey,Snyder,98.43,158.76,99.79,170.1,428.64,Single-ply,SBD,M
Boys,99.79,15,Joe Ables,Coleman,98.07,170.1,95.25,156.49,421.84,Single-ply,SBD,M
Boys,99.79,16,Oden Yanez,Big Spring,95.62,163.29,95.25,158.76,417.3,Single-ply,SBD,M
Boys,99.79,17,Alex Johnson #7,Big Spring,92.9,172.37,102.06,136.08,410.5,Single-ply,SBD,M
Boys,99.79,18,Andrew Purdun,Anson,93.26,145.15,99.79,163.29,408.23,Single-ply,SBD,M
Boys,99.79,19,Colin Sutton,Big Spring,94.89,145.15,90.72,170.1,405.97,Single-ply,SBD,M
Boys,99.79,20,Noah Johnson,San Angelo Lake View,95.53,151.95,81.65,172.37,405.97,Single-ply,SBD,M
Boys,109.77,21,Chris Norwood,Merkel,100.02,147.42,92.99,147.42,387.82,Single-ply,SBD,M
Boys,109.77,1,Jordon Stokes,Clyde,102.51,242.67,170.1,260.82,673.58,Single-ply,SBD,M
Boys,109.77,2,Haddan Stokes,Clyde,105.96,242.67,170.1,226.8,639.57,Single-ply,SBD,M
Boys,109.77,3,Zechariah Lerma,Odessa,104.33,244.94,138.35,222.26,605.55,Single-ply,SBD,M
Boys,109.77,4,David Brown #14,Abilene,106.5,204.12,161.03,213.19,578.33,Single-ply,SBD,M
Boys,109.77,5,Tj Basquez,Post,104.14,215.46,147.42,204.12,566.99,Single-ply,SBD,M
Boys,109.77,6,Seth Gonzales,Roby,104.42,204.12,151.95,201.85,557.92,Single-ply,SBD,M
Boys,109.77,7,Josh Hunter,Abilene,101.88,217.72,120.2,217.72,555.65,Single-ply,SBD,M
Boys,109.77,8,Jake Prew,Clyde,103.33,215.46,136.08,204.12,555.65,Single-ply,SBD,M
Boys,109.77,9,Charlie Boling,Big Spring,105.6,213.19,129.27,195.04,537.51,Single-ply,SBD,M
Boys,109.77,10,Byron Hutson,Odessa,102.06,204.12,120.2,204.12,528.44,Single-ply,SBD,M
Boys,109.77,11,Michael Portillo,Hermleigh,107.41,185.97,136.08,204.12,526.17,Single-ply,SBD,M
Boys,109.77,12,Cory Mendez,Sweetwater,100.97,199.58,97.52,222.26,519.36,Single-ply,SBD,M
Boys,109.77,13,Michael Taylor #3,Merkel,107.41,163.29,131.54,167.83,462.66,Single-ply,SBD,M
Boys,109.77,14,Carlos Gallegos,Sweetwater,109.77,172.37,102.06,181.44,455.86,Single-ply,SBD,M
Boys,109.77,15,Tanner Underwood,Tuscola Jim Ned,107.05,170.1,97.52,176.9,444.52,Single-ply,SBD,M
Boys,109.77,16,Zach Thompson,Cross Plains,101.15,174.63,92.99,165.56,433.18,Single-ply,SBD,M
Boys,109.77,17,Levi Molina,Big Spring,107.05,149.69,99.79,174.63,424.11,Single-ply,SBD,M
Boys,109.77,18,John Adkins #2,Clyde,101.97,151.95,90.72,167.83,410.5,Single-ply,SBD,M
Boys,109.77,19,Mason Monroe,Coleman,106.87,151.95,90.72,161.03,403.7,Single-ply,SBD,M
Boys,109.77,20,Junior Prieto,Merkel,108.23,149.69,83.91,158.76,392.36,Single-ply,SBD,M
Boys,109.77,DQ,Fred Hemphill,Coleman,104.42,213.19,,,,Single-ply,SBD,M
Boys,109.77,DQ,Kyler Shy,Abilene Cooper,102.87,,,,,Single-ply,SBD,M
Boys,124.74,1,Oscar Valdez,Clyde,112.58,272.16,165.56,251.74,689.46,Single-ply,SBD,M
Boys,124.74,2,Aric Rutledge,Big Spring,119.11,238.14,124.74,244.94,607.81,Single-ply,SBD,M
Boys,124.74,3,Darren Jones,Abilene Cooper,110.95,215.46,124.74,226.8,566.99,Single-ply,SBD,M
Boys,124.74+,4,Aaron Leyva,Odessa,124.83,226.8,113.4,206.38,546.58,Single-ply,SBD,M
Boys,124.74,5,Ruben Magallan,San Angelo Lake View,117.3,206.38,131.54,201.85,539.77,Single-ply,SBD,M
Boys,124.74,6,Jesus Adame,Odessa,111.04,210.92,113.4,208.65,532.97,Single-ply,SBD,M
Boys,124.74,7,Tony Silva,Abilene,116.57,226.8,122.47,181.44,530.7,Single-ply,SBD,M
Boys,124.74,8,Isais Aguilar,Roscoe,116.57,210.92,120.2,181.44,512.56,Single-ply,SBD,M
Boys,124.74,9,Nick Perez,Snyder,113.67,199.58,95.25,213.19,508.02,Single-ply,SBD,M
Boys,124.74,10,Slayde Anderson,Abilene,114.21,188.24,108.86,197.31,494.42,Single-ply,SBD,M
Boys,124.74,11,Jose Jiminez #2,Snyder,120.66,163.29,115.67,190.51,469.47,Single-ply,SBD,M
Boys,124.74,12,Clayton Chadwick,Roscoe,123.1,158.76,99.79,158.76,417.3,Single-ply,SBD,M
Boys,124.74,13,Colton Smith,Post,114.94,124.74,111.13,170.1,405.97,Single-ply,SBD,M
Boys,124.74,DQ,Aaron Enriquez,Garden City,111.86,,,,,Single-ply,SBD,M
Boys,124.74+,1,Riley Owens,Abilene Cooper,143.06,272.16,158.76,258.55,689.46,Single-ply,SBD,M
Boys,124.74+,2,Dj Schlather,San Angelo Lake View,134.35,274.42,149.69,242.67,666.78,Single-ply,SBD,M
Boys,124.74+,3,Pablo Gutierrez #2,Odessa,132.99,272.16,149.69,233.6,655.44,Single-ply,SBD,M
Boys,124.74+,4,Conner Willis,Tuscola Jim Ned,135.35,260.82,149.69,235.87,646.37,Single-ply,SBD,M
Boys,124.74+,5,Jesus Verastegui,Abilene,147.51,235.87,140.61,217.72,594.21,Single-ply,SBD,M
Boys,124.74+,6,Andrew Davis,Sweetwater,130.09,181.44,158.76,219.99,560.19,Single-ply,SBD,M
Boys,124.74+,7,Aaron Steelman,Snyder,126.73,226.8,124.74,206.38,557.92,Single-ply,SBD,M
Boys,124.74+,8,Hunter Hawkins,Abilene Cooper,130,215.46,127.01,165.56,508.02,Single-ply,SBD,M
Boys,124.74+,9,Elijah Davis,San Angelo Lake View,143.83,199.58,106.59,192.78,498.95,Single-ply,SBD,M
Boys,124.74+,10,Francisco Esparza,Snyder,132.36,179.17,102.06,185.97,467.2,Single-ply,SBD,M
Boys,124.74+,11,Arnaldo Gjocaj,Abilene Cooper,128.09,190.51,102.06,170.1,462.66,Single-ply,SBD,M
Boys,124.74+,12,Blantyn Gusman,Big Spring,127.82,122.47,74.84,161.03,358.34,Single-ply,SBD,M
