Division,WeightClassKg,Place,Name,Team,BodyweightKg,Best3SquatKg,Best3BenchKg,Best3DeadliftKg,TotalKg,Equipment,Event,Sex
Boys,51.71,1,Ricardo Villafana,Splendora,51.71,136.08,74.84,127.01,337.93,Single-ply,SBD,M
Boys,51.71,2,Noah Courvelle,Shepherd,49.9,90.72,58.97,113.4,263.08,Single-ply,SBD,M
Boys,51.71,3,Ross Cowart,Huntsville,51.71,72.57,61.23,120.2,254.01,Single-ply,SBD,M
Boys,51.71,4,Alex Holland,Conroe The Woodlands,51.71,86.18,49.9,117.93,254.01,Single-ply,SBD,M
Boys,51.71,5,Jonathan Pimentel,Conroe The Woodlands,51.71,83.91,43.09,113.4,240.4,Single-ply,SBD,M
Boys,51.71,6,Zac Jenkins,Shepherd,50.35,92.99,43.09,102.06,238.14,Single-ply,SBD,M
Boys,55.79,1,Garrett Kelso,Splendora,55.34,154.22,83.91,154.22,392.36,Single-ply,SBD,M
Boys,55.79,DQ,Brandon Espinoza,New Caney,52.62,,,,,Single-ply,SBD,M
Boys,55.79,DQ,Cody Strokos,New Caney,53.07,,,,,Single-ply,SBD,M
Boys,55.79,4,Gavin Webster,Conroe The Woodlands,55.79,106.59,72.57,142.88,322.05,Single-ply,SBD,M
Boys,55.79,5,Chase Watson,Shepherd,54.88,111.13,61.23,111.13,283.5,Single-ply,SBD,M
Boys,55.79,6,Evan Hall,Conroe Caney Creek,53.52,81.65,52.16,113.4,247.21,Single-ply,SBD,M
Boys,59.87,1,Tyler Katz,Shepherd,56.25,145.15,104.33,142.88,392.36,Single-ply,SBD,M
Boys,59.87,2,Daniel Segura,Magnolia,58.97,138.35,83.91,165.56,387.82,Single-ply,SBD,M
Boys,59.87,3,Brandon Coon,Conroe Caney Creek,58.97,149.69,72.57,163.29,385.55,Single-ply,SBD,M
Boys,59.87,4,Javier Vela,Shepherd,57.61,133.81,79.38,161.03,374.21,Single-ply,SBD,M
Boys,59.87,5,Trent Taylor,Shepherd,58.51,124.74,74.84,156.49,356.07,Single-ply,SBD,M
Boys,59.87,6,Jaleen Pickett,Madisonville,57.15,127.01,72.57,147.42,347,Single-ply,SBD,M
Boys,59.87,7,Jance Guynes,Shepherd,57.15,122.47,79.38,129.27,331.12,Single-ply,SBD,M
Boys,59.87,8,Ellis Reyes,Madisonville,58.97,108.86,83.91,138.35,331.12,Single-ply,SBD,M
Boys,59.87,9,Ben Portilla,Magnolia,58.06,83.91,83.91,136.08,303.91,Single-ply,SBD,M
Boys,59.87,DQ,Lewis Findley,Livingston,57.15,138.35,,,,Single-ply,SBD,M
Boys,67.13,1,Eric Stanfield,Livingston,66.68,201.85,97.52,165.56,464.93,Single-ply,SBD,M
Boys,67.13,2,Lucas Erickson,Splendora,63.5,161.03,111.13,163.29,435.45,Single-ply,SBD,M
Boys,67.13,3,Nick Harris,Madisonville,63.5,145.15,88.45,154.22,387.82,Single-ply,SBD,M
Boys,67.13,4,Hunter Carlisle,Splendora,64.86,136.08,102.06,147.42,385.55,Single-ply,SBD,M
Boys,67.13,5,Chance Price,New Caney Porter,66.22,147.42,79.38,158.76,385.55,Single-ply,SBD,M
Boys,67.13,6,Nick Warner,Conroe Caney Creek,67.13,129.27,90.72,149.69,369.68,Single-ply,SBD,M
Boys,67.13,7,Tyler Idom,New Caney Porter,62.6,122.47,90.72,145.15,358.34,Single-ply,SBD,M
Boys,67.13,8,Haze Richey,Shepherd,61.23,142.88,70.31,142.88,356.07,Single-ply,SBD,M
Boys,67.13,9,Brett Sangster,Shepherd,64.86,129.27,79.38,136.08,344.73,Single-ply,SBD,M
Boys,67.13,10,Elvin Martinez,Huntsville,64.86,108.86,79.38,151.95,340.19,Single-ply,SBD,M
Boys,67.13,11,Francisco Vargas,Splendora,66.22,127.01,70.31,133.81,331.12,Single-ply,SBD,M
Boys,67.13,12,Marcus Perkins,Shepherd,66.22,104.33,79.38,117.93,301.64,Single-ply,SBD,M
Boys,67.13,13,Darius Jones,Conroe The Woodlands,64.86,120.2,68.04,102.06,290.3,Single-ply,SBD,M
Boys,74.84,1,Aj Box,Shepherd,74.39,183.7,145.15,183.7,512.56,Single-ply,SBD,M
Boys,74.84,2,Grant Fults,Livingston,69.4,174.63,92.99,161.03,428.64,Single-ply,SBD,M
Boys,74.84,3,Donovan Rodriguez,Livingston,73.94,158.76,104.33,151.95,415.04,Single-ply,SBD,M
Boys,74.84,4,Alex Semler,New Caney Porter,74.84,158.76,83.91,167.83,410.5,Single-ply,SBD,M
Boys,74.84,5,Zac Thomas,Shepherd,72.57,158.76,104.33,142.88,405.97,Single-ply,SBD,M
Boys,74.84,6,Armando Cuevas,New Caney Porter,73.94,138.35,106.59,154.22,399.16,Single-ply,SBD,M
Boys,74.84,7,Tim Clay,New Caney Porter,70.76,145.15,90.72,154.22,390.09,Single-ply,SBD,M
Boys,74.84,8,Brahndon Matinez,Huntsville,72.12,133.81,83.91,167.83,385.55,Single-ply,SBD,M
Boys,74.84,9,Humberto Avila,Huntsville,72.57,142.88,83.91,138.35,365.14,Single-ply,SBD,M
Boys,74.84,10,Hunter Bell,Huntsville,69.4,120.2,61.23,156.49,337.93,Single-ply,SBD,M
Boys,74.84,11,Josh Chaney,Conroe The Woodlands,68.04,124.74,77.11,129.27,331.12,Single-ply,SBD,M
Boys,74.84,12,Jeffrey Monroe,Conroe Caney Creek,72.57,106.59,70.31,145.15,322.05,Single-ply,SBD,M
Boys,74.84,DQ,Gavin Stowe,Splendora,69.4,111.13,,151.95,,Single-ply,SBD,M
Boys,82.1,1,Logan Phillips,Conroe Caney Creek,79.38,204.12,136.08,210.92,551.11,Single-ply,SBD,M
Boys,82.1,2,Austin McKean,Conroe Caney Creek,81.65,206.38,124.74,206.38,537.51,Single-ply,SBD,M
Boys,82.1,3,Anthony Lamb,Splendora,81.19,190.51,113.4,195.04,498.95,Single-ply,SBD,M
Boys,82.1,4,Ian Harris,Conroe The Woodlands,78.47,161.03,102.06,183.7,446.79,Single-ply,SBD,M
Boys,82.1,5,Caleb Smith,Magnolia,75.3,156.49,104.33,183.7,444.52,Single-ply,SBD,M
Boys,82.1,6,David Glover,Madisonville,80.29,174.63,79.38,183.7,437.72,Single-ply,SBD,M
Boys,82.1,7,Chance Free,Livingston,80.29,163.29,92.99,165.56,421.84,Single-ply,SBD,M
Boys,82.1,8,Austin Sullivan,Magnolia,78.02,147.42,102.06,156.49,405.97,Single-ply,SBD,M
Boys,82.1,9,Grant Farley,Conroe The Woodlands,80.74,145.15,102.06,149.69,396.89,Single-ply,SBD,M
Boys,82.1,10,Parker Coleman,Conroe The Woodlands,78.93,124.74,97.52,156.49,378.75,Single-ply,SBD,M
Boys,82.1,11,Joseph Leblanc,Shepherd,77.56,142.88,86.18,142.88,371.95,Single-ply,SBD,M
Boys,82.1,12,Eugene Bizer,Conroe The Woodlands,78.93,124.74,86.18,145.15,356.07,Single-ply,SBD,M
Boys,82.1,DQ,Ian Morrow,Madisonville,82.1,142.88,,165.56,,Single-ply,SBD,M
Boys,89.81,1,Dustin Hoeffler,New Caney Porter,89.36,226.8,131.54,231.33,589.67,Single-ply,SBD,M
Boys,89.81,2,Jose Rangel,New Caney,88.9,219.99,117.93,199.58,537.51,Single-ply,SBD,M
Boys,89.81,3,Tommy Garrett,New Caney,84.82,188.24,117.93,185.97,492.15,Single-ply,SBD,M
Boys,89.81,4,Brandon Franklin,Willis,89.81,192.78,111.13,183.7,487.61,Single-ply,SBD,M
Boys,89.81,5,Colby Clark,Shepherd,82.55,172.37,127.01,165.56,464.93,Single-ply,SBD,M
Boys,89.81,6,Kiethon Johnson,Shepherd,82.55,161.03,111.13,174.63,446.79,Single-ply,SBD,M
Boys,89.81,7,Joseph Edwards,New Caney,84.37,185.97,83.91,163.29,433.18,Single-ply,SBD,M
Boys,89.81,8,Hunter Bland,Livingston,85.73,161.03,97.52,158.76,417.3,Single-ply,SBD,M
Boys,89.81,9,Zach Loane,Conroe The Woodlands,86.64,145.15,79.38,190.51,415.04,Single-ply,SBD,M
Boys,89.81,10,Blake Carter,Shepherd,83.46,142.88,106.59,145.15,394.63,Single-ply,SBD,M
Boys,89.81,11,Herbie Mills,Willis,85.28,142.88,79.38,151.95,374.21,Single-ply,SBD,M
Boys,89.81,12,Esau Mejia,Huntsville,88.45,129.27,83.91,149.69,362.87,Single-ply,SBD,M
Boys,89.81,DQ,Joshua Price,Huntsville,87.54,111.13,,136.08,,Single-ply,SBD,M
Boys,89.81,DQ,Mason Chance,Conroe The Woodlands,87.54,140.61,,156.49,,Single-ply,SBD,M
Boys,89.81,DQ,Keyshawn Gillaspie,Willis,87.09,,90.72,190.51,,Single-ply,SBD,M
Boys,99.79,1,Dante Woods,Willis,92.08,183.7,129.27,231.33,544.31,Single-ply,SBD,M
Boys,99.79,2,Kyle Haynes #2,Livingston,95.71,192.78,115.67,204.12,512.56,Single-ply,SBD,M
Boys,99.79,3,Christopher Hodges,Livingston,92.53,183.7,111.13,204.12,498.95,Single-ply,SBD,M
Boys,99.79,4,Jean Carlo Perez,New Caney,96.62,190.51,124.74,176.9,492.15,Single-ply,SBD,M
Boys,99.79,5,Dalton Cyr,Huntsville,99.79,181.44,115.67,181.44,478.54,Single-ply,SBD,M
Boys,99.79,6,David Bastardo,Madisonville,96.16,181.44,104.33,185.97,471.74,Single-ply,SBD,M
Boys,99.79,7,Brenton Tingle,Shepherd,96.16,151.95,97.52,206.38,455.86,Single-ply,SBD,M
Boys,99.79,8,Kevin Stephens,Shepherd,93.89,145.15,99.79,192.78,437.72,Single-ply,SBD,M
Boys,99.79,9,Andrew Smith #13,Conroe The Woodlands,96.16,147.42,95.25,147.42,390.09,Single-ply,SBD,M
Boys,99.79,10,Tommy McDougall,Conroe The Woodlands,90.26,124.74,83.91,149.69,358.34,Single-ply,SBD,M
Boys,99.79,11,Pedro Franco,Madisonville,92.99,111.13,70.31,142.88,324.32,Single-ply,SBD,M
Boys,109.77,1,Parker Blount,Huntsville,109.77,260.82,147.42,238.14,646.37,Single-ply,SBD,M
Boys,109.77,2,Austin Ashley,Madisonville,107.05,215.46,142.88,213.19,571.53,Single-ply,SBD,M
Boys,109.77,3,Dakota Bailey,Shepherd,100.24,204.12,124.74,197.31,526.17,Single-ply,SBD,M
Boys,109.77,4,Christian Rodriguez,Willis,106.59,204.12,117.93,181.44,503.49,Single-ply,SBD,M
Boys,109.77,5,Dalton Gilbert,Madisonville,108.86,190.51,120.2,190.51,501.22,Single-ply,SBD,M
Boys,109.77,6,Oskar Garcia,Madisonville,105.23,165.56,113.4,163.29,442.25,Single-ply,SBD,M
Boys,109.77,7,Noah Ramirez,Splendora,103.42,151.95,108.86,170.1,430.91,Single-ply,SBD,M
Boys,109.77,8,Matthew Sanders,Madisonville,101.15,138.35,90.72,147.42,376.48,Single-ply,SBD,M
Boys,124.74,1,Jacoby Callahan,New Caney Porter,116.57,272.16,156.49,256.28,684.92,Single-ply,SBD,M
Boys,124.74,2,Joe Ogrodowicz,Willis,115.67,240.4,117.93,215.46,573.79,Single-ply,SBD,M
Boys,124.74,3,Jordan Johnson #4,Livingston,121.11,199.58,145.15,183.7,528.44,Single-ply,SBD,M
Boys,124.74,4,Torey Graham,Willis,113.4,244.94,97.52,181.44,523.9,Single-ply,SBD,M
Boys,124.74,5,Zach Krouse,Magnolia,123.38,201.85,129.27,185.97,517.1,Single-ply,SBD,M
Boys,124.74,6,Brandon Edwards,Magnolia,112.49,183.7,122.47,174.63,480.81,Single-ply,SBD,M
Boys,124.74,7,Tristan Garza,New Caney,118.84,190.51,102.06,167.83,460.4,Single-ply,SBD,M
Boys,124.74,8,Jimmy White,Willis,112.94,188.24,117.93,151.95,458.13,Single-ply,SBD,M
Boys,124.74,9,Brent Holmes,Conroe Caney Creek,111.58,174.63,108.86,170.1,453.59,Single-ply,SBD,M
Boys,124.74+,1,Osiel Cerna,Magnolia,141.07,260.82,147.42,217.72,625.96,Single-ply,SBD,M
Boys,124.74+,2,Des Johnson,Huntsville,134.72,249.48,158.76,215.46,623.69,Single-ply,SBD,M
Boys,124.74+,3,Casey Cress,Willis,131.09,188.24,111.13,195.04,494.42,Single-ply,SBD,M
Boys,124.74+,4,Cody Hooks,Willis,131.54,190.51,99.79,190.51,480.81,Single-ply,SBD,M
Boys,124.74+,5,Quinlan Beck,Shepherd,132.45,183.7,102.06,181.44,467.2,Single-ply,SBD,M
Boys,124.74+,6,Colton Lowe,Conroe Caney Creek,138.35,192.78,99.79,163.29,455.86,Single-ply,SBD,M
Boys,124.74+,DQ,Jacob Cates,Livingston,126.1,226.8,,,,Single-ply,SBD,M
Boys,124.74+,DQ,Marshall Simpson,Conroe Caney Creek,148.32,190.51,,,,Single-ply,SBD,M
Boys,,NS,Joshua Richards,Huntsville,,,,,,Single-ply,SBD,M
Boys,,NS,Angel Huerta,New Caney,,,,,,Single-ply,SBD,M
Boys,,NS,Clay McGuire,New Caney,,,,,,Single-ply,SBD,M
Boys,,NS,Michael Casey-Paul,New Caney,,,,,,Single-ply,SBD,M
Boys,,NS,Miguel Rodriguez,Livingston,,,,,,Single-ply,SBD,M
Boys,,NS,Dustin West,Shepherd,,,,,,Single-ply,SBD,M
Boys,,NS,Chris Martin,Splendora,,,,,,Single-ply,SBD,M
Boys,,NS,Cody Bradford,Shepherd,,,,,,Single-ply,SBD,M
Boys,,NS,Max Lorberg,Splendora,,,,,,Single-ply,SBD,M
Boys,,NS,Chris Hill,New Caney Porter,,,,,,Single-ply,SBD,M
