WeightClassKg,Sex,Name,BirthDate,BodyweightKg,Bench1Kg,Bench2Kg,Bench3Kg,Bench4Kg,Best3BenchKg,TotalKg,Event,Equipment,Division,Place
48,M,Yakubu Adesokan,1979-07-16,46,160,162.5,165,,165,165,B,Raw,Open,1
48,M,Mathias Umoh,1971-09-09,46.8,157.5,162.5,165,,165,165,B,Raw,Open,2
48,M,Ruel Ishaku,1967-01-11,46.8,155,160,163.5,,163.5,163.5,B,Raw,Open,3
48,M,Samuel Ekeoma,1981-01-02,45.8,-160,-160,-160,,,,B,Raw,Open,DQ
52,M,Tope Balogun,1983-11-15,50,160,162.5,165,,165,165,B,Raw,Open,1
52,M,Emeka Akamiro,1988-11-18,50.1,157.5,-162.5,-162.5,,157.5,157.5,B,Raw,Open,2
52,M,Chinedu Oti,1984-05-05,51.5,-155,-155,,,,,B,Raw,Open,DQ
56,M,Pam Linus,1981-02-02,54.8,172.5,175,-177.5,,175,175,B,Raw,Open,1
56,M,Wale Kadiri,1988-05-14,53.7,165,167.5,170,,170,170,B,Raw,Open,2
56,M,Peter Aham,1978-09-21,53.7,165,-167.5,-167.5,,165,165,B,Raw,Open,3
56,M,Paul Kehinde,1988-07-07,54.4,-160,-160,,,,,B,Raw,Open,DQ
56,M,Sebiotimo Segun,1980-10-10,55.4,-155,-155,,,,,B,Raw,Open,DQ
60,M,Sunday Otuka,1980-07-04,59,175,180,190,,190,190,B,Raw,Open,1
60,M,Iyke Ibeh,1975-11-26,59.9,165,170,175,,175,175,B,Raw,Open,2
67.5,M,Sodiq Animasaun,1976-01-08,64.2,182.5,187.5,192.5,,192.5,192.5,B,Raw,Open,1
67.5,M,Jibirin Malau,1986-06-03,66.2,180,190,192.5,,192.5,192.5,B,Raw,Open,2
67.5,M,Tolu-Lope Taiwo,1986-09-04,62.8,180,185,-188.5,,185,185,B,Raw,Open,3
67.5,M,Tunde Obesuwa,1978-07-20,60.5,,,,,,,B,Raw,Open,DQ
40,F,Lucy Ihuoma,1984-08-28,38.4,97.5,-100,-100,,97.5,97.5,B,Raw,Open,1
40,F,Dupe Cole,1972-02-20,39.6,95,-97.5,-97.5,,95,95,B,Raw,Open,2
44,F,Ijeoma John,1984-09-16,42.3,100,-105,105,,105,105,B,Raw,Open,1
44,F,Ivory Nwaokire,1977-03-18,41.6,95,-97.5,97.5,,97.5,97.5,B,Raw,Open,2
48,F,Lucy Ogechukwu Ejike,1977-10-16,47.7,120,130,-132.5,,130,130,B,Raw,Open,1
52,F,Ndidi Nwosu,1980-05-01,51.1,120,125,127.5,,127.5,127.5,B,Raw,Open,1
52,F,Joy Onaolapo,1983-12-24,48.4,120,125,-127.5,,125,125,B,Raw,Open,2
56,F,Iyabo Ismaila,1974-12-12,55,125,130,-132.5,,130,130,B,Raw,Open,1
56,F,Osamwenyobor Arasomwon,1983-02-22,55,105,107.5,-110,,107.5,107.5,B,Raw,Open,2
60,F,Patience Igbiti,1977-02-22,59.2,117.5,-122.5,122.5,,122.5,122.5,B,Raw,Open,1
60,F,Virgina Azu,1980-05-27,59.8,115,-117.5,-117.5,,115,115,B,Raw,Open,2
67.5,F,Victoria Nneji,1972-06-05,64.1,130,140,145,,145,145,B,Raw,Open,1
75,F,Shade Oluwafemi,1982-03-11,74,-130,130,140,,140,140,B,Raw,Open,1
82.5,F,Kikelomo Ogunbamowo,1970-07-08,75.9,125,130,-133,,130,130,B,Raw,Open,1
82.5,F,Glory Onyeabor,1981-07-25,82.3,125,130,-132.5,,130,130,B,Raw,Open,2
82.5+,F,Grace Ebere Anozie,1977-07-16,111.4,155,162.5,166,,166,166,B,Raw,Open,1
82.5+,F,Precious Orji,1979-04-08,117.8,155,160,-162.5,,160,160,B,Raw,Open,2
75,M,Wilson Monday,1985-05-05,74.5,190,195,197.5,,197.5,197.5,B,Raw,Open,1
75,M,Oluwole Olubile,1975-07-01,72.2,185,192.5,196,,196,196,B,Raw,Open,2
75,M,Daniel Omogbi,1979-07-20,74,175,-177.5,-177.5,,175,175,B,Raw,Open,3
75,M,Adeniyi Omokpekunole,1984-05-01,69.8,165,-170,170,,170,170,B,Raw,Open,4
82.5,M,Okey Alfa,1986-12-26,82,195,200,205,,205,205,B,Raw,Open,2
82.5,M,Abdulazeez Ibrahim,1978-08-10,81.4,195,202.5,-207.5,,202.5,202.5,B,Raw,Open,3
82.5,M,Bethel Uwaede,1975-01-29,78.2,175,180,185,,185,185,B,Raw,Open,4
82.5,M,Solomon Amarakuo,1976-08-18,82.2,220,235,-242.5,,235,235,B,Raw,Open,1
100,M,Obioma Daleth Aligekwe,1978-12-17,97.3,220,-245,245,,245,245,B,Raw,Open,1
100,M,Ifeanyi Okasia,1989-03-04,93.8,130,135,140,,140,140,B,Raw,Open,2
100+,M,Ini Ekpenyong,1983-06-20,103.8,200,205,210,,210,210,B,Raw,Open,1
100+,M,Ayuba Puja,1986-03-07,103.5,190,-195,195,,195,195,B,Raw,Open,2
