Division,WeightClassKg,Place,Name,Team,BodyweightKg,Best3SquatKg,Best3BenchKg,Best3DeadliftKg,TotalKg,Equipment,Event,Sex
Boys,51.71,1,Lorenzo Barfield,San Antonio Southwest,50.35,65.77,52.16,83.91,201.85,Single-ply,SBD,M
Boys,55.79,1,Sebastian Flores,Blanco,52.16,129.27,65.77,133.81,328.85,Single-ply,SBD,M
Boys,55.79,2,Dominic Mercado,San Antonio Cole,55.47,120.2,61.23,142.88,324.32,Single-ply,SBD,M
Boys,55.79,DQ,Maverick Graham,Lytle,54.98,,,,,Single-ply,SBD,M
Boys,59.87,1,Matthew Gauthier,Marion,59.06,127.01,90.72,172.37,390.09,Single-ply,SBD,M
Boys,59.87,2,Seth Aguinaga,Lytle,57.11,117.93,65.77,142.88,326.59,Single-ply,SBD,M
Boys,59.87,3,Justin Jones,Universal City Randolph,59.28,111.13,77.11,124.74,312.98,Single-ply,SBD,M
Boys,59.87,4,Brandon Mercado,San Antonio Cole,57.33,113.4,61.23,129.27,303.91,Single-ply,SBD,M
Boys,59.87,5,Tristan Lowery,Lytle,58.06,102.06,61.23,113.4,276.69,Single-ply,SBD,M
Boys,59.87,6,Alex Bonorden,Victoria St. Joseph,58.65,65.77,49.9,106.59,222.26,Single-ply,SBD,M
Boys,67.13,1,Anthony Perez,San Antonio Cole,61.73,206.38,111.13,208.65,526.17,Single-ply,SBD,M
Boys,67.13,2,Kristopher Imhof,San Antonio Cole,65.45,190.51,92.99,208.65,492.15,Single-ply,SBD,M
Boys,67.13,3,Erick Cruz,Victoria St. Joseph,62.96,174.63,111.13,176.9,462.66,Single-ply,SBD,M
Boys,67.13,4,Oziel Padilla,Natalia,61.6,190.51,99.79,170.1,460.4,Single-ply,SBD,M
Boys,67.13,5,Eddie Torres,Blanco,62.6,156.49,102.06,190.51,449.06,Single-ply,SBD,M
Boys,67.13,6,Steven Flores,Blanco,65.23,147.42,79.38,147.42,374.21,Single-ply,SBD,M
Boys,67.13,7,Rene Alavrado,Center Point,66.36,129.27,88.45,147.42,365.14,Single-ply,SBD,M
Boys,67.13,8,Dominik Espinoza,Center Point,63,136.08,72.57,142.88,351.53,Single-ply,SBD,M
Boys,67.13,9,Roman Ornelas,San Antonio Holy Cross,62.64,120.2,61.23,165.56,347,Single-ply,SBD,M
Boys,67.13,10,David Ortega,Lytle,63.5,108.86,70.31,158.76,337.93,Single-ply,SBD,M
Boys,67.13,11,Ethan Ozuna,Center Point,63.23,120.2,72.57,138.35,331.12,Single-ply,SBD,M
Boys,67.13,12,Oscar Alverez,Natalia,65.73,115.67,86.18,129.27,331.12,Single-ply,SBD,M
Boys,67.13,13,Garrett Ralph,Lytle,65.54,115.67,65.77,142.88,324.32,Single-ply,SBD,M
Boys,67.13,14,Evan O'Berg,Universal City Randolph,65.36,111.13,74.84,131.54,317.51,Single-ply,SBD,M
Boys,67.13,15,Chance Cabiness,Center Point,64.5,106.59,63.5,108.86,278.96,Single-ply,SBD,M
Boys,67.13,16,Leif Griffin,San Antonio Southwest,66.36,102.06,65.77,111.13,278.96,Single-ply,SBD,M
Boys,67.13,17,Gene Martinez,San Antonio Southwest,61.46,92.99,70.31,102.06,265.35,Single-ply,SBD,M
Boys,74.84,1,Matt Vallejo,Victoria St. Joseph,73.62,181.44,111.13,195.04,487.61,Single-ply,SBD,M
Boys,74.84,2,Eddie Lopez,Universal City Randolph,70.13,167.83,86.18,195.04,449.06,Single-ply,SBD,M
Boys,74.84,3,Justin Requenes,Blanco,73.16,142.88,124.74,176.9,444.52,Single-ply,SBD,M
Boys,74.84,4,Barret Blackledge,Center Point,74.07,154.22,102.06,165.56,421.84,Single-ply,SBD,M
Boys,74.84,5,Edher Nava,Marion,73.39,154.22,95.25,161.03,410.5,Single-ply,SBD,M
Boys,74.84,6,Tyrell Dunlap,San Antonio Cole,72.21,142.88,92.99,172.37,408.23,Single-ply,SBD,M
Boys,74.84,7,Juergen Lapham,Center Point,73.07,142.88,72.57,167.83,383.29,Single-ply,SBD,M
Boys,74.84,8,Carter Ullrich,Marion,69.54,111.13,102.06,156.49,369.68,Single-ply,SBD,M
Boys,74.84,9,Alex Gill,Universal City Randolph,69.31,142.88,81.65,140.61,365.14,Single-ply,SBD,M
Boys,74.84,10,Keith Wilkinson,San Antonio Cole,74.53,129.27,86.18,142.88,358.34,Single-ply,SBD,M
Boys,74.84,11,Matthew Benedetti,Marion,68.54,113.4,74.84,149.69,337.93,Single-ply,SBD,M
Boys,74.84,12,Tayler Mills,Marion,72.53,117.93,70.31,145.15,333.39,Single-ply,SBD,M
Boys,74.84,13,Chris Abrameit,Marion,72.26,115.67,68.04,140.61,324.32,Single-ply,SBD,M
Boys,74.84,14,Matthew Moore,San Antonio Cole,70.13,113.4,72.57,136.08,322.05,Single-ply,SBD,M
Boys,74.84,15,Joseph Perez,Lytle,68.63,102.06,61.23,131.54,294.84,Single-ply,SBD,M
Boys,74.84,16,Binyamin Flade,Natalia,70.17,95.25,56.7,106.59,258.55,Single-ply,SBD,M
Boys,82.1,1,Hunter Duplessis,San Antonio Cole,79.11,183.7,120.2,197.31,501.22,Single-ply,SBD,M
Boys,82.1,2,Josh Cooper,Center Point,82.05,181.44,108.86,172.37,462.66,Single-ply,SBD,M
Boys,82.1,3,Jacob Ruiz,Blanco,79.97,163.29,102.06,142.88,408.23,Single-ply,SBD,M
Boys,82.1,4,Micah Wilson,Universal City Randolph,80.38,151.95,97.52,158.76,408.23,Single-ply,SBD,M
Boys,82.1,5,Kyle Martinez,Blanco,81.37,147.42,102.06,154.22,403.7,Single-ply,SBD,M
Boys,82.1,6,Brandon Phipps,Blanco,81.6,149.69,102.06,142.88,394.63,Single-ply,SBD,M
Boys,82.1,7,Kameron Frias,Natalia,80.33,142.88,83.91,142.88,369.68,Single-ply,SBD,M
Boys,82.1,8,Nakia Givens,Lytle,75.25,142.88,74.84,149.69,367.41,Single-ply,SBD,M
Boys,82.1,9,Nicholas Propst,San Antonio Southwest,78.52,111.13,61.23,129.27,301.64,Single-ply,SBD,M
Boys,82.1,10,Damian Rivas,San Antonio Southwest,81.42,102.06,52.16,102.06,256.28,Single-ply,SBD,M
Boys,82.1,DQ,James Moore #6,San Antonio Cole,80.83,,,,,Single-ply,SBD,M
Boys,89.81,1,Gus Martinez,Blanco,88.59,158.76,104.33,195.04,458.13,Single-ply,SBD,M
Boys,89.81,2,Kage Armstrong,Marion,86.18,165.56,90.72,192.78,449.06,Single-ply,SBD,M
Boys,89.81,3,Aljandro Sanchez,Natalia,86.27,185.97,88.45,174.63,449.06,Single-ply,SBD,M
Boys,89.81,4,Peter Billalobos,Natalia,84.32,183.7,86.18,174.63,444.52,Single-ply,SBD,M
Boys,89.81,5,Brigham Nelson,Victoria St. Joseph,88.99,181.44,90.72,158.76,430.91,Single-ply,SBD,M
Boys,89.81,6,Dylan Vogt,San Antonio Holy Cross,85.59,156.49,74.84,172.37,403.7,Single-ply,SBD,M
Boys,89.81,7,Caden Fregia,Natalia,83.69,170.1,95.25,131.54,396.89,Single-ply,SBD,M
Boys,89.81,8,Edward Kierkstead,San Antonio Southwest,83.42,142.88,92.99,149.69,385.55,Single-ply,SBD,M
Boys,89.81,9,Tucker Walters,Marion,82.6,124.74,79.38,142.88,347,Single-ply,SBD,M
Boys,89.81,10,Myles Riggs,Marion,82.87,120.2,72.57,142.88,335.66,Single-ply,SBD,M
Boys,89.81,11,Will Adams,Blanco,83.96,108.86,74.84,124.74,308.44,Single-ply,SBD,M
Boys,99.79,1,Ethan Chapa,Center Point,91.04,185.97,108.86,183.7,478.54,Single-ply,SBD,M
Boys,99.79,2,Joshua Jones,San Antonio Southwest,92.03,133.81,83.91,181.44,399.16,Single-ply,SBD,M
Boys,99.79,3,Chance Horton,Blanco,99.29,158.76,95.25,142.88,396.89,Single-ply,SBD,M
Boys,99.79,4,Francisco Duran,Marion,91.99,142.88,97.52,154.22,394.63,Single-ply,SBD,M
Boys,99.79,5,Seth Alamendarez,San Antonio Holy Cross,94.89,154.22,74.84,165.56,394.63,Single-ply,SBD,M
Boys,99.79,6,Jacob Vargas,San Antonio Southwest,90.36,142.88,83.91,165.56,392.36,Single-ply,SBD,M
Boys,99.79,7,Samson Montoya,Marion,96.62,102.06,74.84,142.88,319.78,Single-ply,SBD,M
Boys,99.79,8,Eivan Valencia,San Antonio Southwest,91.35,83.91,74.84,140.61,299.37,Single-ply,SBD,M
Boys,99.79,DQ,Amador Colmenero,Lytle,94.89,,,,,Single-ply,SBD,M
Boys,109.77,1,Oscar Ramirez,Natalia,108.5,199.58,102.06,176.9,478.54,Single-ply,SBD,M
Boys,109.77,2,Louie Lopez,Victoria St. Joseph,102.69,172.37,102.06,147.42,421.84,Single-ply,SBD,M
Boys,109.77,3,Cody Abrameit,Marion,101.92,154.22,81.65,170.1,405.97,Single-ply,SBD,M
Boys,109.77,4,Fransisco Uhl,San Antonio Southwest,105.82,120.2,111.13,151.95,383.29,Single-ply,SBD,M
Boys,109.77,DQ,Jacob Caldera,San Antonio Cole,104.14,,,,,Single-ply,SBD,M
Boys,124.74,1,Cody Kuhl,Universal City Randolph,112.72,215.46,120.2,238.14,573.79,Single-ply,SBD,M
Boys,124.74,2,Santiago Leija,Natalia,116.07,201.85,138.35,192.78,532.97,Single-ply,SBD,M
Boys,124.74,3,Victor Cruz,Natalia,121.74,195.04,102.06,188.24,485.34,Single-ply,SBD,M
Boys,124.74,4,Jose Murillo,San Antonio Southwest,115.76,142.88,79.38,151.95,374.21,Single-ply,SBD,M
Boys,124.74,5,Trevor Benavides,Victoria St. Joseph,110,113.4,97.52,129.27,340.19,Single-ply,SBD,M
Boys,124.74,6,Christian Adame,San Antonio Southwest,110.27,113.4,70.31,149.69,333.39,Single-ply,SBD,M
Boys,124.74,7,Arturo Lopez,San Antonio Southwest,110.5,115.67,70.31,131.54,317.51,Single-ply,SBD,M
Boys,124.74,8,AJ Ortiz,San Antonio Holy Cross,111.36,120.2,65.77,124.74,310.71,Single-ply,SBD,M
Boys,124.74,9,Sergio Calvo,Victoria St. Joseph,110.95,113.4,74.84,120.2,308.44,Single-ply,SBD,M
Boys,124.74+,1,Ray Navarro,Natalia,131.63,306.17,142.88,249.48,698.53,Single-ply,SBD,M
Boys,124.74+,2,Jonah Masters,San Antonio Cole,135.85,204.12,120.2,233.6,557.92,Single-ply,SBD,M
Boys,124.74+,3,Phillip Gonzalez,San Antonio Holy Cross,144.92,167.83,102.06,167.83,437.72,Single-ply,SBD,M
Boys,124.74+,4,Trevor Gloor,Victoria St. Joseph,126.1,167.83,106.59,142.88,417.3,Single-ply,SBD,M
Boys,124.74+,5,George Ortiz,San Antonio Southwest,131.09,102.06,70.31,154.22,326.59,Single-ply,SBD,M
Boys,124.74+,6,Ethan Pray,Victoria St. Joseph,142.16,83.91,88.45,124.74,297.1,Single-ply,SBD,M
